<?xml version="1.0" encoding="utf-8" standalone="no"?>
<!DOCTYPE svg PUBLIC "-//W3C//DTD SVG 1.1//EN"
  "http://www.w3.org/Graphics/SVG/1.1/DTD/svg11.dtd">
<svg height="374.4pt" version="1.1" viewBox="0 0 1080 374.4" width="1080pt" xmlns="http://www.w3.org/2000/svg" xmlns:xlink="http://www.w3.org/1999/xlink">
 <metadata>
  <rdf:RDF xmlns:cc="http://creativecommons.org/ns#" xmlns:dc="http://purl.org/dc/elements/1.1/" xmlns:rdf="http://www.w3.org/1999/02/22-rdf-syntax-ns#">
   <cc:Work>
    <dc:type rdf:resource="http://purl.org/dc/dcmitype/StillImage"/>
    <dc:date>2021-09-09T08:54:42.878196</dc:date>
    <dc:format>image/svg+xml</dc:format>
    <dc:creator>
     <cc:Agent>
      <dc:title>Matplotlib v3.4.2, https://matplotlib.org/</dc:title>
     </cc:Agent>
    </dc:creator>
   </cc:Work>
  </rdf:RDF>
 </metadata>
 <defs>
  <style type="text/css">*{stroke-linecap:butt;stroke-linejoin:round;}</style>
 </defs>
 <g id="figure_1">
  <g id="patch_1">
   <path d="M 0 374.4 
L 1080 374.4 
L 1080 0 
L 0 0 
z
" style="fill:#ffffff;stroke:#000000;stroke-linejoin:miter;stroke-width:1.25;"/>
  </g>
  <g id="axes_1">
   <g id="patch_2">
    <path d="M 60.05 302.42 
L 1062.72 302.42 
L 1062.72 79.7376 
L 60.05 79.7376 
z
" style="fill:#f5f5f5;"/>
   </g>
   <g id="PathCollection_1">
    <path clip-path="url(#p04c726ad5d)" d="M 100.1568 120.724317 
C 101.183927 120.724317 102.169124 120.316235 102.895413 119.589946 
C 103.621701 118.863658 104.029783 117.878461 104.029783 116.851333 
C 104.029783 115.824206 103.621701 114.839009 102.895413 114.112721 
C 102.169124 113.386432 101.183927 112.97835 100.1568 112.97835 
C 99.129673 112.97835 98.144476 113.386432 97.418187 114.112721 
C 96.691899 114.839009 96.283817 115.824206 96.283817 116.851333 
C 96.283817 117.878461 96.691899 118.863658 97.418187 119.589946 
C 98.144476 120.316235 99.129673 120.724317 100.1568 120.724317 
z
" style="fill:#ff0000;stroke:#ff0000;"/>
    <path clip-path="url(#p04c726ad5d)" d="M 140.2636 123.690979 
C 140.952618 123.690979 141.613508 123.417229 142.100717 122.93002 
C 142.587927 122.442811 142.861676 121.781921 142.861676 121.092903 
C 142.861676 120.403885 142.587927 119.742995 142.100717 119.255786 
C 141.613508 118.768576 140.952618 118.494827 140.2636 118.494827 
C 139.574582 118.494827 138.913692 118.768576 138.426483 119.255786 
C 137.939273 119.742995 137.665524 120.403885 137.665524 121.092903 
C 137.665524 121.781921 137.939273 122.442811 138.426483 122.93002 
C 138.913692 123.417229 139.574582 123.690979 140.2636 123.690979 
z
" style="fill:#ff0000;stroke:#ff0000;"/>
    <path clip-path="url(#p04c726ad5d)" d="M 180.3704 127.932549 
C 181.059418 127.932549 181.720308 127.658799 182.207517 127.17159 
C 182.694727 126.68438 182.968476 126.02349 182.968476 125.334472 
C 182.968476 124.645455 182.694727 123.984564 182.207517 123.497355 
C 181.720308 123.010146 181.059418 122.736396 180.3704 122.736396 
C 179.681382 122.736396 179.020492 123.010146 178.533283 123.497355 
C 178.046073 123.984564 177.772324 124.645455 177.772324 125.334472 
C 177.772324 126.02349 178.046073 126.68438 178.533283 127.17159 
C 179.020492 127.658799 179.681382 127.932549 180.3704 127.932549 
z
" style="fill:#ff0000;stroke:#ff0000;"/>
    <path clip-path="url(#p04c726ad5d)" d="M 220.4772 132.174118 
C 221.166218 132.174118 221.827108 131.900368 222.314317 131.413159 
C 222.801527 130.92595 223.075276 130.26506 223.075276 129.576042 
C 223.075276 128.887024 222.801527 128.226134 222.314317 127.738925 
C 221.827108 127.251715 221.166218 126.977966 220.4772 126.977966 
C 219.788182 126.977966 219.127292 127.251715 218.640083 127.738925 
C 218.152873 128.226134 217.879124 128.887024 217.879124 129.576042 
C 217.879124 130.26506 218.152873 130.92595 218.640083 131.413159 
C 219.127292 131.900368 219.788182 132.174118 220.4772 132.174118 
z
" style="fill:#ff0000;stroke:#ff0000;"/>
    <path clip-path="url(#p04c726ad5d)" d="M 260.584 136.415688 
C 261.273018 136.415688 261.933908 136.141938 262.421117 135.654729 
C 262.908327 135.16752 263.182076 134.506629 263.182076 133.817611 
C 263.182076 133.128594 262.908327 132.467703 262.421117 131.980494 
C 261.933908 131.493285 261.273018 131.219535 260.584 131.219535 
C 259.894982 131.219535 259.234092 131.493285 258.746883 131.980494 
C 258.259673 132.467703 257.985924 133.128594 257.985924 133.817611 
C 257.985924 134.506629 258.259673 135.16752 258.746883 135.654729 
C 259.234092 136.141938 259.894982 136.415688 260.584 136.415688 
z
" style="fill:#ff0000;stroke:#ff0000;"/>
    <path clip-path="url(#p04c726ad5d)" d="M 300.6908 140.657257 
C 301.379818 140.657257 302.040708 140.383507 302.527917 139.896298 
C 303.015127 139.409089 303.288876 138.748199 303.288876 138.059181 
C 303.288876 137.370163 303.015127 136.709273 302.527917 136.222064 
C 302.040708 135.734854 301.379818 135.461105 300.6908 135.461105 
C 300.001782 135.461105 299.340892 135.734854 298.853683 136.222064 
C 298.366473 136.709273 298.092724 137.370163 298.092724 138.059181 
C 298.092724 138.748199 298.366473 139.409089 298.853683 139.896298 
C 299.340892 140.383507 300.001782 140.657257 300.6908 140.657257 
z
" style="fill:#ff0000;stroke:#ff0000;"/>
    <path clip-path="url(#p04c726ad5d)" d="M 340.7976 144.898827 
C 341.486618 144.898827 342.147508 144.625077 342.634717 144.137868 
C 343.121927 143.650659 343.395676 142.989768 343.395676 142.30075 
C 343.395676 141.611733 343.121927 140.950842 342.634717 140.463633 
C 342.147508 139.976424 341.486618 139.702674 340.7976 139.702674 
C 340.108582 139.702674 339.447692 139.976424 338.960483 140.463633 
C 338.473273 140.950842 338.199524 141.611733 338.199524 142.30075 
C 338.199524 142.989768 338.473273 143.650659 338.960483 144.137868 
C 339.447692 144.625077 340.108582 144.898827 340.7976 144.898827 
z
" style="fill:#ff0000;stroke:#ff0000;"/>
    <path clip-path="url(#p04c726ad5d)" d="M 380.9044 149.140396 
C 381.593418 149.140396 382.254308 148.866647 382.741517 148.379437 
C 383.228727 147.892228 383.502476 147.231338 383.502476 146.54232 
C 383.502476 145.853302 383.228727 145.192412 382.741517 144.705203 
C 382.254308 144.217993 381.593418 143.944244 380.9044 143.944244 
C 380.215382 143.944244 379.554492 144.217993 379.067283 144.705203 
C 378.580073 145.192412 378.306324 145.853302 378.306324 146.54232 
C 378.306324 147.231338 378.580073 147.892228 379.067283 148.379437 
C 379.554492 148.866647 380.215382 149.140396 380.9044 149.140396 
z
" style="fill:#ff0000;stroke:#ff0000;"/>
    <path clip-path="url(#p04c726ad5d)" d="M 421.0112 144.898827 
C 421.700218 144.898827 422.361108 144.625077 422.848317 144.137868 
C 423.335527 143.650659 423.609276 142.989768 423.609276 142.30075 
C 423.609276 141.611733 423.335527 140.950842 422.848317 140.463633 
C 422.361108 139.976424 421.700218 139.702674 421.0112 139.702674 
C 420.322182 139.702674 419.661292 139.976424 419.174083 140.463633 
C 418.686873 140.950842 418.413124 141.611733 418.413124 142.30075 
C 418.413124 142.989768 418.686873 143.650659 419.174083 144.137868 
C 419.661292 144.625077 420.322182 144.898827 421.0112 144.898827 
z
" style="fill:#ff0000;stroke:#ff0000;"/>
    <path clip-path="url(#p04c726ad5d)" d="M 461.118 132.174118 
C 461.807018 132.174118 462.467908 131.900368 462.955117 131.413159 
C 463.442327 130.92595 463.716076 130.26506 463.716076 129.576042 
C 463.716076 128.887024 463.442327 128.226134 462.955117 127.738925 
C 462.467908 127.251715 461.807018 126.977966 461.118 126.977966 
C 460.428982 126.977966 459.768092 127.251715 459.280883 127.738925 
C 458.793673 128.226134 458.519924 128.887024 458.519924 129.576042 
C 458.519924 130.26506 458.793673 130.92595 459.280883 131.413159 
C 459.768092 131.900368 460.428982 132.174118 461.118 132.174118 
z
" style="fill:#ff0000;stroke:#ff0000;"/>
    <path clip-path="url(#p04c726ad5d)" d="M 501.2248 127.932549 
C 501.913818 127.932549 502.574708 127.658799 503.061917 127.17159 
C 503.549127 126.68438 503.822876 126.02349 503.822876 125.334472 
C 503.822876 124.645455 503.549127 123.984564 503.061917 123.497355 
C 502.574708 123.010146 501.913818 122.736396 501.2248 122.736396 
C 500.535782 122.736396 499.874892 123.010146 499.387683 123.497355 
C 498.900473 123.984564 498.626724 124.645455 498.626724 125.334472 
C 498.626724 126.02349 498.900473 126.68438 499.387683 127.17159 
C 499.874892 127.658799 500.535782 127.932549 501.2248 127.932549 
z
" style="fill:#ff0000;stroke:#ff0000;"/>
    <path clip-path="url(#p04c726ad5d)" d="M 541.3316 123.690979 
C 542.020618 123.690979 542.681508 123.417229 543.168717 122.93002 
C 543.655927 122.442811 543.929676 121.781921 543.929676 121.092903 
C 543.929676 120.403885 543.655927 119.742995 543.168717 119.255786 
C 542.681508 118.768576 542.020618 118.494827 541.3316 118.494827 
C 540.642582 118.494827 539.981692 118.768576 539.494483 119.255786 
C 539.007273 119.742995 538.733524 120.403885 538.733524 121.092903 
C 538.733524 121.781921 539.007273 122.442811 539.494483 122.93002 
C 539.981692 123.417229 540.642582 123.690979 541.3316 123.690979 
z
" style="fill:#ff0000;stroke:#ff0000;"/>
    <path clip-path="url(#p04c726ad5d)" d="M 581.4384 123.690979 
C 582.127418 123.690979 582.788308 123.417229 583.275517 122.93002 
C 583.762727 122.442811 584.036476 121.781921 584.036476 121.092903 
C 584.036476 120.403885 583.762727 119.742995 583.275517 119.255786 
C 582.788308 118.768576 582.127418 118.494827 581.4384 118.494827 
C 580.749382 118.494827 580.088492 118.768576 579.601283 119.255786 
C 579.114073 119.742995 578.840324 120.403885 578.840324 121.092903 
C 578.840324 121.781921 579.114073 122.442811 579.601283 122.93002 
C 580.088492 123.417229 580.749382 123.690979 581.4384 123.690979 
z
" style="fill:#ff0000;stroke:#ff0000;"/>
    <path clip-path="url(#p04c726ad5d)" d="M 621.5452 133.449025 
C 622.572327 133.449025 623.557524 133.040943 624.283813 132.314655 
C 625.010101 131.588366 625.418183 130.603169 625.418183 129.576042 
C 625.418183 128.548915 625.010101 127.563718 624.283813 126.837429 
C 623.557524 126.111141 622.572327 125.703059 621.5452 125.703059 
C 620.518073 125.703059 619.532876 126.111141 618.806587 126.837429 
C 618.080299 127.563718 617.672217 128.548915 617.672217 129.576042 
C 617.672217 130.603169 618.080299 131.588366 618.806587 132.314655 
C 619.532876 133.040943 620.518073 133.449025 621.5452 133.449025 
z
" style="fill:#ff0000;stroke:#ff0000;"/>
    <path clip-path="url(#p04c726ad5d)" d="M 661.652 136.415688 
C 662.341018 136.415688 663.001908 136.141938 663.489117 135.654729 
C 663.976327 135.16752 664.250076 134.506629 664.250076 133.817611 
C 664.250076 133.128594 663.976327 132.467703 663.489117 131.980494 
C 663.001908 131.493285 662.341018 131.219535 661.652 131.219535 
C 660.962982 131.219535 660.302092 131.493285 659.814883 131.980494 
C 659.327673 132.467703 659.053924 133.128594 659.053924 133.817611 
C 659.053924 134.506629 659.327673 135.16752 659.814883 135.654729 
C 660.302092 136.141938 660.962982 136.415688 661.652 136.415688 
z
" style="fill:#ff0000;stroke:#ff0000;"/>
    <path clip-path="url(#p04c726ad5d)" d="M 701.7588 140.657257 
C 702.447818 140.657257 703.108708 140.383507 703.595917 139.896298 
C 704.083127 139.409089 704.356876 138.748199 704.356876 138.059181 
C 704.356876 137.370163 704.083127 136.709273 703.595917 136.222064 
C 703.108708 135.734854 702.447818 135.461105 701.7588 135.461105 
C 701.069782 135.461105 700.408892 135.734854 699.921683 136.222064 
C 699.434473 136.709273 699.160724 137.370163 699.160724 138.059181 
C 699.160724 138.748199 699.434473 139.409089 699.921683 139.896298 
C 700.408892 140.383507 701.069782 140.657257 701.7588 140.657257 
z
" style="fill:#ff0000;stroke:#ff0000;"/>
    <path clip-path="url(#p04c726ad5d)" d="M 741.8656 144.898827 
C 742.554618 144.898827 743.215508 144.625077 743.702717 144.137868 
C 744.189927 143.650659 744.463676 142.989768 744.463676 142.30075 
C 744.463676 141.611733 744.189927 140.950842 743.702717 140.463633 
C 743.215508 139.976424 742.554618 139.702674 741.8656 139.702674 
C 741.176582 139.702674 740.515692 139.976424 740.028483 140.463633 
C 739.541273 140.950842 739.267524 141.611733 739.267524 142.30075 
C 739.267524 142.989768 739.541273 143.650659 740.028483 144.137868 
C 740.515692 144.625077 741.176582 144.898827 741.8656 144.898827 
z
" style="fill:#ff0000;stroke:#ff0000;"/>
    <path clip-path="url(#p04c726ad5d)" d="M 942.3996 149.140396 
C 943.088618 149.140396 943.749508 148.866647 944.236717 148.379437 
C 944.723927 147.892228 944.997676 147.231338 944.997676 146.54232 
C 944.997676 145.853302 944.723927 145.192412 944.236717 144.705203 
C 943.749508 144.217993 943.088618 143.944244 942.3996 143.944244 
C 941.710582 143.944244 941.049692 144.217993 940.562483 144.705203 
C 940.075273 145.192412 939.801524 145.853302 939.801524 146.54232 
C 939.801524 147.231338 940.075273 147.892228 940.562483 148.379437 
C 941.049692 148.866647 941.710582 149.140396 942.3996 149.140396 
z
" style="fill:#ff0000;stroke:#ff0000;"/>
    <path clip-path="url(#p04c726ad5d)" d="M 982.5064 157.623535 
C 983.195418 157.623535 983.856308 157.349786 984.343517 156.862576 
C 984.830727 156.375367 985.104476 155.714477 985.104476 155.025459 
C 985.104476 154.336441 984.830727 153.675551 984.343517 153.188342 
C 983.856308 152.701133 983.195418 152.427383 982.5064 152.427383 
C 981.817382 152.427383 981.156492 152.701133 980.669283 153.188342 
C 980.182073 153.675551 979.908324 154.336441 979.908324 155.025459 
C 979.908324 155.714477 980.182073 156.375367 980.669283 156.862576 
C 981.156492 157.349786 981.817382 157.623535 982.5064 157.623535 
z
" style="fill:#ff0000;stroke:#ff0000;"/>
    <path clip-path="url(#p04c726ad5d)" d="M 1022.6132 161.865105 
C 1023.302218 161.865105 1023.963108 161.591355 1024.450317 161.104146 
C 1024.937527 160.616937 1025.211276 159.956046 1025.211276 159.267029 
C 1025.211276 158.578011 1024.937527 157.91712 1024.450317 157.429911 
C 1023.963108 156.942702 1023.302218 156.668952 1022.6132 156.668952 
C 1021.924182 156.668952 1021.263292 156.942702 1020.776083 157.429911 
C 1020.288873 157.91712 1020.015124 158.578011 1020.015124 159.267029 
C 1020.015124 159.956046 1020.288873 160.616937 1020.776083 161.104146 
C 1021.263292 161.591355 1021.924182 161.865105 1022.6132 161.865105 
z
" style="fill:#ff0000;stroke:#ff0000;"/>
   </g>
   <g id="PathCollection_2">
    <path clip-path="url(#p04c726ad5d)" d="M 96.283817 120.724317 
L 104.029783 120.724317 
L 104.029783 112.97835 
L 96.283817 112.97835 
z
" style="fill:#006400;stroke:#006400;"/>
    <path clip-path="url(#p04c726ad5d)" d="M 137.665524 119.44941 
L 142.861676 119.44941 
L 142.861676 114.253257 
L 137.665524 114.253257 
z
" style="fill:#006400;stroke:#006400;"/>
    <path clip-path="url(#p04c726ad5d)" d="M 177.772324 123.690979 
L 182.968476 123.690979 
L 182.968476 118.494827 
L 177.772324 118.494827 
z
" style="fill:#006400;stroke:#006400;"/>
    <path clip-path="url(#p04c726ad5d)" d="M 217.879124 132.174118 
L 223.075276 132.174118 
L 223.075276 126.977966 
L 217.879124 126.977966 
z
" style="fill:#006400;stroke:#006400;"/>
    <path clip-path="url(#p04c726ad5d)" d="M 257.985924 132.174118 
L 263.182076 132.174118 
L 263.182076 126.977966 
L 257.985924 126.977966 
z
" style="fill:#006400;stroke:#006400;"/>
    <path clip-path="url(#p04c726ad5d)" d="M 298.092724 132.174118 
L 303.288876 132.174118 
L 303.288876 126.977966 
L 298.092724 126.977966 
z
" style="fill:#006400;stroke:#006400;"/>
    <path clip-path="url(#p04c726ad5d)" d="M 338.199524 132.174118 
L 343.395676 132.174118 
L 343.395676 126.977966 
L 338.199524 126.977966 
z
" style="fill:#006400;stroke:#006400;"/>
    <path clip-path="url(#p04c726ad5d)" d="M 378.306324 127.932549 
L 383.502476 127.932549 
L 383.502476 122.736396 
L 378.306324 122.736396 
z
" style="fill:#006400;stroke:#006400;"/>
    <path clip-path="url(#p04c726ad5d)" d="M 418.413124 123.690979 
L 423.609276 123.690979 
L 423.609276 118.494827 
L 418.413124 118.494827 
z
" style="fill:#006400;stroke:#006400;"/>
    <path clip-path="url(#p04c726ad5d)" d="M 458.519924 136.415688 
L 463.716076 136.415688 
L 463.716076 131.219535 
L 458.519924 131.219535 
z
" style="fill:#006400;stroke:#006400;"/>
    <path clip-path="url(#p04c726ad5d)" d="M 498.626724 127.932549 
L 503.822876 127.932549 
L 503.822876 122.736396 
L 498.626724 122.736396 
z
" style="fill:#006400;stroke:#006400;"/>
    <path clip-path="url(#p04c726ad5d)" d="M 538.733524 119.44941 
L 543.929676 119.44941 
L 543.929676 114.253257 
L 538.733524 114.253257 
z
" style="fill:#006400;stroke:#006400;"/>
    <path clip-path="url(#p04c726ad5d)" d="M 577.565417 124.965886 
L 585.311383 124.965886 
L 585.311383 117.21992 
L 577.565417 117.21992 
z
" style="fill:#006400;stroke:#006400;"/>
    <path clip-path="url(#p04c726ad5d)" d="M 618.947124 132.174118 
L 624.143276 132.174118 
L 624.143276 126.977966 
L 618.947124 126.977966 
z
" style="fill:#006400;stroke:#006400;"/>
    <path clip-path="url(#p04c726ad5d)" d="M 659.053924 136.415688 
L 664.250076 136.415688 
L 664.250076 131.219535 
L 659.053924 131.219535 
z
" style="fill:#006400;stroke:#006400;"/>
    <path clip-path="url(#p04c726ad5d)" d="M 699.160724 140.657257 
L 704.356876 140.657257 
L 704.356876 135.461105 
L 699.160724 135.461105 
z
" style="fill:#006400;stroke:#006400;"/>
    <path clip-path="url(#p04c726ad5d)" d="M 739.267524 144.898827 
L 744.463676 144.898827 
L 744.463676 139.702674 
L 739.267524 139.702674 
z
" style="fill:#006400;stroke:#006400;"/>
    <path clip-path="url(#p04c726ad5d)" d="M 939.801524 149.140396 
L 944.997676 149.140396 
L 944.997676 143.944244 
L 939.801524 143.944244 
z
" style="fill:#006400;stroke:#006400;"/>
    <path clip-path="url(#p04c726ad5d)" d="M 979.908324 144.898827 
L 985.104476 144.898827 
L 985.104476 139.702674 
L 979.908324 139.702674 
z
" style="fill:#006400;stroke:#006400;"/>
    <path clip-path="url(#p04c726ad5d)" d="M 1020.015124 140.657257 
L 1025.211276 140.657257 
L 1025.211276 135.461105 
L 1020.015124 135.461105 
z
" style="fill:#006400;stroke:#006400;"/>
   </g>
   <g id="PathCollection_3">
    <path clip-path="url(#p04c726ad5d)" d="M 100.1568 112.97835 
L 96.283817 120.724317 
L 104.029783 120.724317 
z
" style="fill:#0000ff;stroke:#0000ff;"/>
    <path clip-path="url(#p04c726ad5d)" d="M 140.2636 118.494827 
L 137.665524 123.690979 
L 142.861676 123.690979 
z
" style="fill:#0000ff;stroke:#0000ff;"/>
    <path clip-path="url(#p04c726ad5d)" d="M 180.3704 122.736396 
L 177.772324 127.932549 
L 182.968476 127.932549 
z
" style="fill:#0000ff;stroke:#0000ff;"/>
    <path clip-path="url(#p04c726ad5d)" d="M 220.4772 126.977966 
L 217.879124 132.174118 
L 223.075276 132.174118 
z
" style="fill:#0000ff;stroke:#0000ff;"/>
    <path clip-path="url(#p04c726ad5d)" d="M 260.584 131.219535 
L 257.985924 136.415688 
L 263.182076 136.415688 
z
" style="fill:#0000ff;stroke:#0000ff;"/>
    <path clip-path="url(#p04c726ad5d)" d="M 300.6908 135.461105 
L 298.092724 140.657257 
L 303.288876 140.657257 
z
" style="fill:#0000ff;stroke:#0000ff;"/>
    <path clip-path="url(#p04c726ad5d)" d="M 340.7976 131.219535 
L 338.199524 136.415688 
L 343.395676 136.415688 
z
" style="fill:#0000ff;stroke:#0000ff;"/>
    <path clip-path="url(#p04c726ad5d)" d="M 380.9044 126.977966 
L 378.306324 132.174118 
L 383.502476 132.174118 
z
" style="fill:#0000ff;stroke:#0000ff;"/>
    <path clip-path="url(#p04c726ad5d)" d="M 421.0112 122.736396 
L 418.413124 127.932549 
L 423.609276 127.932549 
z
" style="fill:#0000ff;stroke:#0000ff;"/>
    <path clip-path="url(#p04c726ad5d)" d="M 461.118 118.494827 
L 458.519924 123.690979 
L 463.716076 123.690979 
z
" style="fill:#0000ff;stroke:#0000ff;"/>
    <path clip-path="url(#p04c726ad5d)" d="M 501.2248 122.736396 
L 498.626724 127.932549 
L 503.822876 127.932549 
z
" style="fill:#0000ff;stroke:#0000ff;"/>
    <path clip-path="url(#p04c726ad5d)" d="M 541.3316 126.977966 
L 538.733524 132.174118 
L 543.929676 132.174118 
z
" style="fill:#0000ff;stroke:#0000ff;"/>
    <path clip-path="url(#p04c726ad5d)" d="M 581.4384 126.977966 
L 578.840324 132.174118 
L 584.036476 132.174118 
z
" style="fill:#0000ff;stroke:#0000ff;"/>
    <path clip-path="url(#p04c726ad5d)" d="M 621.5452 131.219535 
L 618.947124 136.415688 
L 624.143276 136.415688 
z
" style="fill:#0000ff;stroke:#0000ff;"/>
    <path clip-path="url(#p04c726ad5d)" d="M 661.652 135.461105 
L 659.053924 140.657257 
L 664.250076 140.657257 
z
" style="fill:#0000ff;stroke:#0000ff;"/>
    <path clip-path="url(#p04c726ad5d)" d="M 701.7588 139.702674 
L 699.160724 144.898827 
L 704.356876 144.898827 
z
" style="fill:#0000ff;stroke:#0000ff;"/>
    <path clip-path="url(#p04c726ad5d)" d="M 741.8656 143.944244 
L 739.267524 149.140396 
L 744.463676 149.140396 
z
" style="fill:#0000ff;stroke:#0000ff;"/>
    <path clip-path="url(#p04c726ad5d)" d="M 942.3996 148.185813 
L 939.801524 153.381966 
L 944.997676 153.381966 
z
" style="fill:#0000ff;stroke:#0000ff;"/>
    <path clip-path="url(#p04c726ad5d)" d="M 982.5064 139.702674 
L 979.908324 144.898827 
L 985.104476 144.898827 
z
" style="fill:#0000ff;stroke:#0000ff;"/>
    <path clip-path="url(#p04c726ad5d)" d="M 1022.6132 143.944244 
L 1020.015124 149.140396 
L 1025.211276 149.140396 
z
" style="fill:#0000ff;stroke:#0000ff;"/>
   </g>
   <g id="matplotlib.axis_1">
    <g id="xtick_1">
     <g id="line2d_1">
      <path clip-path="url(#p04c726ad5d)" d="M 60.05 302.42 
L 60.05 79.7376 
" style="fill:none;stroke:#666666;stroke-linecap:square;stroke-opacity:0.3;stroke-width:0.4;"/>
     </g>
     <g id="line2d_2">
      <defs>
       <path d="M 0 0 
L 0 3.5 
" id="mf11d8c9080" style="stroke:#000000;stroke-width:0.8;"/>
      </defs>
      <g>
       <use style="stroke:#000000;stroke-width:0.8;" x="60.05" xlink:href="#mf11d8c9080" y="302.42"/>
      </g>
     </g>
     <g id="text_1">
      <!-- 18-04-21 -->
      <g transform="translate(63.36125 363.88875)rotate(-90)scale(0.12 -0.12)">
       <defs>
        <path d="M 794 531 
L 1825 531 
L 1825 4091 
L 703 3866 
L 703 4441 
L 1819 4666 
L 2450 4666 
L 2450 531 
L 3481 531 
L 3481 0 
L 794 0 
L 794 531 
z
" id="DejaVuSans-31" transform="scale(0.015625)"/>
        <path d="M 2034 2216 
Q 1584 2216 1326 1975 
Q 1069 1734 1069 1313 
Q 1069 891 1326 650 
Q 1584 409 2034 409 
Q 2484 409 2743 651 
Q 3003 894 3003 1313 
Q 3003 1734 2745 1975 
Q 2488 2216 2034 2216 
z
M 1403 2484 
Q 997 2584 770 2862 
Q 544 3141 544 3541 
Q 544 4100 942 4425 
Q 1341 4750 2034 4750 
Q 2731 4750 3128 4425 
Q 3525 4100 3525 3541 
Q 3525 3141 3298 2862 
Q 3072 2584 2669 2484 
Q 3125 2378 3379 2068 
Q 3634 1759 3634 1313 
Q 3634 634 3220 271 
Q 2806 -91 2034 -91 
Q 1263 -91 848 271 
Q 434 634 434 1313 
Q 434 1759 690 2068 
Q 947 2378 1403 2484 
z
M 1172 3481 
Q 1172 3119 1398 2916 
Q 1625 2713 2034 2713 
Q 2441 2713 2670 2916 
Q 2900 3119 2900 3481 
Q 2900 3844 2670 4047 
Q 2441 4250 2034 4250 
Q 1625 4250 1398 4047 
Q 1172 3844 1172 3481 
z
" id="DejaVuSans-38" transform="scale(0.015625)"/>
        <path d="M 313 2009 
L 1997 2009 
L 1997 1497 
L 313 1497 
L 313 2009 
z
" id="DejaVuSans-2d" transform="scale(0.015625)"/>
        <path d="M 2034 4250 
Q 1547 4250 1301 3770 
Q 1056 3291 1056 2328 
Q 1056 1369 1301 889 
Q 1547 409 2034 409 
Q 2525 409 2770 889 
Q 3016 1369 3016 2328 
Q 3016 3291 2770 3770 
Q 2525 4250 2034 4250 
z
M 2034 4750 
Q 2819 4750 3233 4129 
Q 3647 3509 3647 2328 
Q 3647 1150 3233 529 
Q 2819 -91 2034 -91 
Q 1250 -91 836 529 
Q 422 1150 422 2328 
Q 422 3509 836 4129 
Q 1250 4750 2034 4750 
z
" id="DejaVuSans-30" transform="scale(0.015625)"/>
        <path d="M 2419 4116 
L 825 1625 
L 2419 1625 
L 2419 4116 
z
M 2253 4666 
L 3047 4666 
L 3047 1625 
L 3713 1625 
L 3713 1100 
L 3047 1100 
L 3047 0 
L 2419 0 
L 2419 1100 
L 313 1100 
L 313 1709 
L 2253 4666 
z
" id="DejaVuSans-34" transform="scale(0.015625)"/>
        <path d="M 1228 531 
L 3431 531 
L 3431 0 
L 469 0 
L 469 531 
Q 828 903 1448 1529 
Q 2069 2156 2228 2338 
Q 2531 2678 2651 2914 
Q 2772 3150 2772 3378 
Q 2772 3750 2511 3984 
Q 2250 4219 1831 4219 
Q 1534 4219 1204 4116 
Q 875 4013 500 3803 
L 500 4441 
Q 881 4594 1212 4672 
Q 1544 4750 1819 4750 
Q 2544 4750 2975 4387 
Q 3406 4025 3406 3419 
Q 3406 3131 3298 2873 
Q 3191 2616 2906 2266 
Q 2828 2175 2409 1742 
Q 1991 1309 1228 531 
z
" id="DejaVuSans-32" transform="scale(0.015625)"/>
       </defs>
       <use xlink:href="#DejaVuSans-31"/>
       <use x="63.623047" xlink:href="#DejaVuSans-38"/>
       <use x="127.246094" xlink:href="#DejaVuSans-2d"/>
       <use x="163.330078" xlink:href="#DejaVuSans-30"/>
       <use x="226.953125" xlink:href="#DejaVuSans-34"/>
       <use x="290.576172" xlink:href="#DejaVuSans-2d"/>
       <use x="326.660156" xlink:href="#DejaVuSans-32"/>
       <use x="390.283203" xlink:href="#DejaVuSans-31"/>
      </g>
     </g>
    </g>
    <g id="xtick_2">
     <g id="line2d_3">
      <path clip-path="url(#p04c726ad5d)" d="M 100.1568 302.42 
L 100.1568 79.7376 
" style="fill:none;stroke:#666666;stroke-linecap:square;stroke-opacity:0.3;stroke-width:0.4;"/>
     </g>
     <g id="line2d_4">
      <g>
       <use style="stroke:#000000;stroke-width:0.8;" x="100.1568" xlink:href="#mf11d8c9080" y="302.42"/>
      </g>
     </g>
     <g id="text_2">
      <!-- 19-04-21 -->
      <g transform="translate(103.46805 363.88875)rotate(-90)scale(0.12 -0.12)">
       <defs>
        <path d="M 703 97 
L 703 672 
Q 941 559 1184 500 
Q 1428 441 1663 441 
Q 2288 441 2617 861 
Q 2947 1281 2994 2138 
Q 2813 1869 2534 1725 
Q 2256 1581 1919 1581 
Q 1219 1581 811 2004 
Q 403 2428 403 3163 
Q 403 3881 828 4315 
Q 1253 4750 1959 4750 
Q 2769 4750 3195 4129 
Q 3622 3509 3622 2328 
Q 3622 1225 3098 567 
Q 2575 -91 1691 -91 
Q 1453 -91 1209 -44 
Q 966 3 703 97 
z
M 1959 2075 
Q 2384 2075 2632 2365 
Q 2881 2656 2881 3163 
Q 2881 3666 2632 3958 
Q 2384 4250 1959 4250 
Q 1534 4250 1286 3958 
Q 1038 3666 1038 3163 
Q 1038 2656 1286 2365 
Q 1534 2075 1959 2075 
z
" id="DejaVuSans-39" transform="scale(0.015625)"/>
       </defs>
       <use xlink:href="#DejaVuSans-31"/>
       <use x="63.623047" xlink:href="#DejaVuSans-39"/>
       <use x="127.246094" xlink:href="#DejaVuSans-2d"/>
       <use x="163.330078" xlink:href="#DejaVuSans-30"/>
       <use x="226.953125" xlink:href="#DejaVuSans-34"/>
       <use x="290.576172" xlink:href="#DejaVuSans-2d"/>
       <use x="326.660156" xlink:href="#DejaVuSans-32"/>
       <use x="390.283203" xlink:href="#DejaVuSans-31"/>
      </g>
     </g>
    </g>
    <g id="xtick_3">
     <g id="line2d_5">
      <path clip-path="url(#p04c726ad5d)" d="M 140.2636 302.42 
L 140.2636 79.7376 
" style="fill:none;stroke:#666666;stroke-linecap:square;stroke-opacity:0.3;stroke-width:0.4;"/>
     </g>
     <g id="line2d_6">
      <g>
       <use style="stroke:#000000;stroke-width:0.8;" x="140.2636" xlink:href="#mf11d8c9080" y="302.42"/>
      </g>
     </g>
     <g id="text_3">
      <!-- 20-04-21 -->
      <g transform="translate(143.57485 363.88875)rotate(-90)scale(0.12 -0.12)">
       <use xlink:href="#DejaVuSans-32"/>
       <use x="63.623047" xlink:href="#DejaVuSans-30"/>
       <use x="127.246094" xlink:href="#DejaVuSans-2d"/>
       <use x="163.330078" xlink:href="#DejaVuSans-30"/>
       <use x="226.953125" xlink:href="#DejaVuSans-34"/>
       <use x="290.576172" xlink:href="#DejaVuSans-2d"/>
       <use x="326.660156" xlink:href="#DejaVuSans-32"/>
       <use x="390.283203" xlink:href="#DejaVuSans-31"/>
      </g>
     </g>
    </g>
    <g id="xtick_4">
     <g id="line2d_7">
      <path clip-path="url(#p04c726ad5d)" d="M 180.3704 302.42 
L 180.3704 79.7376 
" style="fill:none;stroke:#666666;stroke-linecap:square;stroke-opacity:0.3;stroke-width:0.4;"/>
     </g>
     <g id="line2d_8">
      <g>
       <use style="stroke:#000000;stroke-width:0.8;" x="180.3704" xlink:href="#mf11d8c9080" y="302.42"/>
      </g>
     </g>
     <g id="text_4">
      <!-- 21-04-21 -->
      <g transform="translate(183.68165 363.88875)rotate(-90)scale(0.12 -0.12)">
       <use xlink:href="#DejaVuSans-32"/>
       <use x="63.623047" xlink:href="#DejaVuSans-31"/>
       <use x="127.246094" xlink:href="#DejaVuSans-2d"/>
       <use x="163.330078" xlink:href="#DejaVuSans-30"/>
       <use x="226.953125" xlink:href="#DejaVuSans-34"/>
       <use x="290.576172" xlink:href="#DejaVuSans-2d"/>
       <use x="326.660156" xlink:href="#DejaVuSans-32"/>
       <use x="390.283203" xlink:href="#DejaVuSans-31"/>
      </g>
     </g>
    </g>
    <g id="xtick_5">
     <g id="line2d_9">
      <path clip-path="url(#p04c726ad5d)" d="M 220.4772 302.42 
L 220.4772 79.7376 
" style="fill:none;stroke:#666666;stroke-linecap:square;stroke-opacity:0.3;stroke-width:0.4;"/>
     </g>
     <g id="line2d_10">
      <g>
       <use style="stroke:#000000;stroke-width:0.8;" x="220.4772" xlink:href="#mf11d8c9080" y="302.42"/>
      </g>
     </g>
     <g id="text_5">
      <!-- 22-04-21 -->
      <g transform="translate(223.78845 363.88875)rotate(-90)scale(0.12 -0.12)">
       <use xlink:href="#DejaVuSans-32"/>
       <use x="63.623047" xlink:href="#DejaVuSans-32"/>
       <use x="127.246094" xlink:href="#DejaVuSans-2d"/>
       <use x="163.330078" xlink:href="#DejaVuSans-30"/>
       <use x="226.953125" xlink:href="#DejaVuSans-34"/>
       <use x="290.576172" xlink:href="#DejaVuSans-2d"/>
       <use x="326.660156" xlink:href="#DejaVuSans-32"/>
       <use x="390.283203" xlink:href="#DejaVuSans-31"/>
      </g>
     </g>
    </g>
    <g id="xtick_6">
     <g id="line2d_11">
      <path clip-path="url(#p04c726ad5d)" d="M 260.584 302.42 
L 260.584 79.7376 
" style="fill:none;stroke:#666666;stroke-linecap:square;stroke-opacity:0.3;stroke-width:0.4;"/>
     </g>
     <g id="line2d_12">
      <g>
       <use style="stroke:#000000;stroke-width:0.8;" x="260.584" xlink:href="#mf11d8c9080" y="302.42"/>
      </g>
     </g>
     <g id="text_6">
      <!-- 23-04-21 -->
      <g transform="translate(263.89525 363.88875)rotate(-90)scale(0.12 -0.12)">
       <defs>
        <path d="M 2597 2516 
Q 3050 2419 3304 2112 
Q 3559 1806 3559 1356 
Q 3559 666 3084 287 
Q 2609 -91 1734 -91 
Q 1441 -91 1130 -33 
Q 819 25 488 141 
L 488 750 
Q 750 597 1062 519 
Q 1375 441 1716 441 
Q 2309 441 2620 675 
Q 2931 909 2931 1356 
Q 2931 1769 2642 2001 
Q 2353 2234 1838 2234 
L 1294 2234 
L 1294 2753 
L 1863 2753 
Q 2328 2753 2575 2939 
Q 2822 3125 2822 3475 
Q 2822 3834 2567 4026 
Q 2313 4219 1838 4219 
Q 1578 4219 1281 4162 
Q 984 4106 628 3988 
L 628 4550 
Q 988 4650 1302 4700 
Q 1616 4750 1894 4750 
Q 2613 4750 3031 4423 
Q 3450 4097 3450 3541 
Q 3450 3153 3228 2886 
Q 3006 2619 2597 2516 
z
" id="DejaVuSans-33" transform="scale(0.015625)"/>
       </defs>
       <use xlink:href="#DejaVuSans-32"/>
       <use x="63.623047" xlink:href="#DejaVuSans-33"/>
       <use x="127.246094" xlink:href="#DejaVuSans-2d"/>
       <use x="163.330078" xlink:href="#DejaVuSans-30"/>
       <use x="226.953125" xlink:href="#DejaVuSans-34"/>
       <use x="290.576172" xlink:href="#DejaVuSans-2d"/>
       <use x="326.660156" xlink:href="#DejaVuSans-32"/>
       <use x="390.283203" xlink:href="#DejaVuSans-31"/>
      </g>
     </g>
    </g>
    <g id="xtick_7">
     <g id="line2d_13">
      <path clip-path="url(#p04c726ad5d)" d="M 300.6908 302.42 
L 300.6908 79.7376 
" style="fill:none;stroke:#666666;stroke-linecap:square;stroke-opacity:0.3;stroke-width:0.4;"/>
     </g>
     <g id="line2d_14">
      <g>
       <use style="stroke:#000000;stroke-width:0.8;" x="300.6908" xlink:href="#mf11d8c9080" y="302.42"/>
      </g>
     </g>
     <g id="text_7">
      <!-- 24-04-21 -->
      <g transform="translate(304.00205 363.88875)rotate(-90)scale(0.12 -0.12)">
       <use xlink:href="#DejaVuSans-32"/>
       <use x="63.623047" xlink:href="#DejaVuSans-34"/>
       <use x="127.246094" xlink:href="#DejaVuSans-2d"/>
       <use x="163.330078" xlink:href="#DejaVuSans-30"/>
       <use x="226.953125" xlink:href="#DejaVuSans-34"/>
       <use x="290.576172" xlink:href="#DejaVuSans-2d"/>
       <use x="326.660156" xlink:href="#DejaVuSans-32"/>
       <use x="390.283203" xlink:href="#DejaVuSans-31"/>
      </g>
     </g>
    </g>
    <g id="xtick_8">
     <g id="line2d_15">
      <path clip-path="url(#p04c726ad5d)" d="M 340.7976 302.42 
L 340.7976 79.7376 
" style="fill:none;stroke:#666666;stroke-linecap:square;stroke-opacity:0.3;stroke-width:0.4;"/>
     </g>
     <g id="line2d_16">
      <g>
       <use style="stroke:#000000;stroke-width:0.8;" x="340.7976" xlink:href="#mf11d8c9080" y="302.42"/>
      </g>
     </g>
     <g id="text_8">
      <!-- 25-04-21 -->
      <g transform="translate(344.10885 363.88875)rotate(-90)scale(0.12 -0.12)">
       <defs>
        <path d="M 691 4666 
L 3169 4666 
L 3169 4134 
L 1269 4134 
L 1269 2991 
Q 1406 3038 1543 3061 
Q 1681 3084 1819 3084 
Q 2600 3084 3056 2656 
Q 3513 2228 3513 1497 
Q 3513 744 3044 326 
Q 2575 -91 1722 -91 
Q 1428 -91 1123 -41 
Q 819 9 494 109 
L 494 744 
Q 775 591 1075 516 
Q 1375 441 1709 441 
Q 2250 441 2565 725 
Q 2881 1009 2881 1497 
Q 2881 1984 2565 2268 
Q 2250 2553 1709 2553 
Q 1456 2553 1204 2497 
Q 953 2441 691 2322 
L 691 4666 
z
" id="DejaVuSans-35" transform="scale(0.015625)"/>
       </defs>
       <use xlink:href="#DejaVuSans-32"/>
       <use x="63.623047" xlink:href="#DejaVuSans-35"/>
       <use x="127.246094" xlink:href="#DejaVuSans-2d"/>
       <use x="163.330078" xlink:href="#DejaVuSans-30"/>
       <use x="226.953125" xlink:href="#DejaVuSans-34"/>
       <use x="290.576172" xlink:href="#DejaVuSans-2d"/>
       <use x="326.660156" xlink:href="#DejaVuSans-32"/>
       <use x="390.283203" xlink:href="#DejaVuSans-31"/>
      </g>
     </g>
    </g>
    <g id="xtick_9">
     <g id="line2d_17">
      <path clip-path="url(#p04c726ad5d)" d="M 380.9044 302.42 
L 380.9044 79.7376 
" style="fill:none;stroke:#666666;stroke-linecap:square;stroke-opacity:0.3;stroke-width:0.4;"/>
     </g>
     <g id="line2d_18">
      <g>
       <use style="stroke:#000000;stroke-width:0.8;" x="380.9044" xlink:href="#mf11d8c9080" y="302.42"/>
      </g>
     </g>
     <g id="text_9">
      <!-- 26-04-21 -->
      <g transform="translate(384.21565 363.88875)rotate(-90)scale(0.12 -0.12)">
       <defs>
        <path d="M 2113 2584 
Q 1688 2584 1439 2293 
Q 1191 2003 1191 1497 
Q 1191 994 1439 701 
Q 1688 409 2113 409 
Q 2538 409 2786 701 
Q 3034 994 3034 1497 
Q 3034 2003 2786 2293 
Q 2538 2584 2113 2584 
z
M 3366 4563 
L 3366 3988 
Q 3128 4100 2886 4159 
Q 2644 4219 2406 4219 
Q 1781 4219 1451 3797 
Q 1122 3375 1075 2522 
Q 1259 2794 1537 2939 
Q 1816 3084 2150 3084 
Q 2853 3084 3261 2657 
Q 3669 2231 3669 1497 
Q 3669 778 3244 343 
Q 2819 -91 2113 -91 
Q 1303 -91 875 529 
Q 447 1150 447 2328 
Q 447 3434 972 4092 
Q 1497 4750 2381 4750 
Q 2619 4750 2861 4703 
Q 3103 4656 3366 4563 
z
" id="DejaVuSans-36" transform="scale(0.015625)"/>
       </defs>
       <use xlink:href="#DejaVuSans-32"/>
       <use x="63.623047" xlink:href="#DejaVuSans-36"/>
       <use x="127.246094" xlink:href="#DejaVuSans-2d"/>
       <use x="163.330078" xlink:href="#DejaVuSans-30"/>
       <use x="226.953125" xlink:href="#DejaVuSans-34"/>
       <use x="290.576172" xlink:href="#DejaVuSans-2d"/>
       <use x="326.660156" xlink:href="#DejaVuSans-32"/>
       <use x="390.283203" xlink:href="#DejaVuSans-31"/>
      </g>
     </g>
    </g>
    <g id="xtick_10">
     <g id="line2d_19">
      <path clip-path="url(#p04c726ad5d)" d="M 421.0112 302.42 
L 421.0112 79.7376 
" style="fill:none;stroke:#666666;stroke-linecap:square;stroke-opacity:0.3;stroke-width:0.4;"/>
     </g>
     <g id="line2d_20">
      <g>
       <use style="stroke:#000000;stroke-width:0.8;" x="421.0112" xlink:href="#mf11d8c9080" y="302.42"/>
      </g>
     </g>
     <g id="text_10">
      <!-- 27-04-21 -->
      <g transform="translate(424.32245 363.88875)rotate(-90)scale(0.12 -0.12)">
       <defs>
        <path d="M 525 4666 
L 3525 4666 
L 3525 4397 
L 1831 0 
L 1172 0 
L 2766 4134 
L 525 4134 
L 525 4666 
z
" id="DejaVuSans-37" transform="scale(0.015625)"/>
       </defs>
       <use xlink:href="#DejaVuSans-32"/>
       <use x="63.623047" xlink:href="#DejaVuSans-37"/>
       <use x="127.246094" xlink:href="#DejaVuSans-2d"/>
       <use x="163.330078" xlink:href="#DejaVuSans-30"/>
       <use x="226.953125" xlink:href="#DejaVuSans-34"/>
       <use x="290.576172" xlink:href="#DejaVuSans-2d"/>
       <use x="326.660156" xlink:href="#DejaVuSans-32"/>
       <use x="390.283203" xlink:href="#DejaVuSans-31"/>
      </g>
     </g>
    </g>
    <g id="xtick_11">
     <g id="line2d_21">
      <path clip-path="url(#p04c726ad5d)" d="M 461.118 302.42 
L 461.118 79.7376 
" style="fill:none;stroke:#666666;stroke-linecap:square;stroke-opacity:0.3;stroke-width:0.4;"/>
     </g>
     <g id="line2d_22">
      <g>
       <use style="stroke:#000000;stroke-width:0.8;" x="461.118" xlink:href="#mf11d8c9080" y="302.42"/>
      </g>
     </g>
     <g id="text_11">
      <!-- 28-04-21 -->
      <g transform="translate(464.42925 363.88875)rotate(-90)scale(0.12 -0.12)">
       <use xlink:href="#DejaVuSans-32"/>
       <use x="63.623047" xlink:href="#DejaVuSans-38"/>
       <use x="127.246094" xlink:href="#DejaVuSans-2d"/>
       <use x="163.330078" xlink:href="#DejaVuSans-30"/>
       <use x="226.953125" xlink:href="#DejaVuSans-34"/>
       <use x="290.576172" xlink:href="#DejaVuSans-2d"/>
       <use x="326.660156" xlink:href="#DejaVuSans-32"/>
       <use x="390.283203" xlink:href="#DejaVuSans-31"/>
      </g>
     </g>
    </g>
    <g id="xtick_12">
     <g id="line2d_23">
      <path clip-path="url(#p04c726ad5d)" d="M 501.2248 302.42 
L 501.2248 79.7376 
" style="fill:none;stroke:#666666;stroke-linecap:square;stroke-opacity:0.3;stroke-width:0.4;"/>
     </g>
     <g id="line2d_24">
      <g>
       <use style="stroke:#000000;stroke-width:0.8;" x="501.2248" xlink:href="#mf11d8c9080" y="302.42"/>
      </g>
     </g>
     <g id="text_12">
      <!-- 29-04-21 -->
      <g transform="translate(504.53605 363.88875)rotate(-90)scale(0.12 -0.12)">
       <use xlink:href="#DejaVuSans-32"/>
       <use x="63.623047" xlink:href="#DejaVuSans-39"/>
       <use x="127.246094" xlink:href="#DejaVuSans-2d"/>
       <use x="163.330078" xlink:href="#DejaVuSans-30"/>
       <use x="226.953125" xlink:href="#DejaVuSans-34"/>
       <use x="290.576172" xlink:href="#DejaVuSans-2d"/>
       <use x="326.660156" xlink:href="#DejaVuSans-32"/>
       <use x="390.283203" xlink:href="#DejaVuSans-31"/>
      </g>
     </g>
    </g>
    <g id="xtick_13">
     <g id="line2d_25">
      <path clip-path="url(#p04c726ad5d)" d="M 541.3316 302.42 
L 541.3316 79.7376 
" style="fill:none;stroke:#666666;stroke-linecap:square;stroke-opacity:0.3;stroke-width:0.4;"/>
     </g>
     <g id="line2d_26">
      <g>
       <use style="stroke:#000000;stroke-width:0.8;" x="541.3316" xlink:href="#mf11d8c9080" y="302.42"/>
      </g>
     </g>
     <g id="text_13">
      <!-- 30-04-21 -->
      <g transform="translate(544.64285 363.88875)rotate(-90)scale(0.12 -0.12)">
       <use xlink:href="#DejaVuSans-33"/>
       <use x="63.623047" xlink:href="#DejaVuSans-30"/>
       <use x="127.246094" xlink:href="#DejaVuSans-2d"/>
       <use x="163.330078" xlink:href="#DejaVuSans-30"/>
       <use x="226.953125" xlink:href="#DejaVuSans-34"/>
       <use x="290.576172" xlink:href="#DejaVuSans-2d"/>
       <use x="326.660156" xlink:href="#DejaVuSans-32"/>
       <use x="390.283203" xlink:href="#DejaVuSans-31"/>
      </g>
     </g>
    </g>
    <g id="xtick_14">
     <g id="line2d_27">
      <path clip-path="url(#p04c726ad5d)" d="M 581.4384 302.42 
L 581.4384 79.7376 
" style="fill:none;stroke:#666666;stroke-linecap:square;stroke-opacity:0.3;stroke-width:0.4;"/>
     </g>
     <g id="line2d_28">
      <g>
       <use style="stroke:#000000;stroke-width:0.8;" x="581.4384" xlink:href="#mf11d8c9080" y="302.42"/>
      </g>
     </g>
     <g id="text_14">
      <!-- 01-05-21 -->
      <g transform="translate(584.74965 363.88875)rotate(-90)scale(0.12 -0.12)">
       <use xlink:href="#DejaVuSans-30"/>
       <use x="63.623047" xlink:href="#DejaVuSans-31"/>
       <use x="127.246094" xlink:href="#DejaVuSans-2d"/>
       <use x="163.330078" xlink:href="#DejaVuSans-30"/>
       <use x="226.953125" xlink:href="#DejaVuSans-35"/>
       <use x="290.576172" xlink:href="#DejaVuSans-2d"/>
       <use x="326.660156" xlink:href="#DejaVuSans-32"/>
       <use x="390.283203" xlink:href="#DejaVuSans-31"/>
      </g>
     </g>
    </g>
    <g id="xtick_15">
     <g id="line2d_29">
      <path clip-path="url(#p04c726ad5d)" d="M 621.5452 302.42 
L 621.5452 79.7376 
" style="fill:none;stroke:#666666;stroke-linecap:square;stroke-opacity:0.3;stroke-width:0.4;"/>
     </g>
     <g id="line2d_30">
      <g>
       <use style="stroke:#000000;stroke-width:0.8;" x="621.5452" xlink:href="#mf11d8c9080" y="302.42"/>
      </g>
     </g>
     <g id="text_15">
      <!-- 02-05-21 -->
      <g transform="translate(624.85645 363.88875)rotate(-90)scale(0.12 -0.12)">
       <use xlink:href="#DejaVuSans-30"/>
       <use x="63.623047" xlink:href="#DejaVuSans-32"/>
       <use x="127.246094" xlink:href="#DejaVuSans-2d"/>
       <use x="163.330078" xlink:href="#DejaVuSans-30"/>
       <use x="226.953125" xlink:href="#DejaVuSans-35"/>
       <use x="290.576172" xlink:href="#DejaVuSans-2d"/>
       <use x="326.660156" xlink:href="#DejaVuSans-32"/>
       <use x="390.283203" xlink:href="#DejaVuSans-31"/>
      </g>
     </g>
    </g>
    <g id="xtick_16">
     <g id="line2d_31">
      <path clip-path="url(#p04c726ad5d)" d="M 661.652 302.42 
L 661.652 79.7376 
" style="fill:none;stroke:#666666;stroke-linecap:square;stroke-opacity:0.3;stroke-width:0.4;"/>
     </g>
     <g id="line2d_32">
      <g>
       <use style="stroke:#000000;stroke-width:0.8;" x="661.652" xlink:href="#mf11d8c9080" y="302.42"/>
      </g>
     </g>
     <g id="text_16">
      <!-- 03-05-21 -->
      <g transform="translate(664.96325 363.88875)rotate(-90)scale(0.12 -0.12)">
       <use xlink:href="#DejaVuSans-30"/>
       <use x="63.623047" xlink:href="#DejaVuSans-33"/>
       <use x="127.246094" xlink:href="#DejaVuSans-2d"/>
       <use x="163.330078" xlink:href="#DejaVuSans-30"/>
       <use x="226.953125" xlink:href="#DejaVuSans-35"/>
       <use x="290.576172" xlink:href="#DejaVuSans-2d"/>
       <use x="326.660156" xlink:href="#DejaVuSans-32"/>
       <use x="390.283203" xlink:href="#DejaVuSans-31"/>
      </g>
     </g>
    </g>
    <g id="xtick_17">
     <g id="line2d_33">
      <path clip-path="url(#p04c726ad5d)" d="M 701.7588 302.42 
L 701.7588 79.7376 
" style="fill:none;stroke:#666666;stroke-linecap:square;stroke-opacity:0.3;stroke-width:0.4;"/>
     </g>
     <g id="line2d_34">
      <g>
       <use style="stroke:#000000;stroke-width:0.8;" x="701.7588" xlink:href="#mf11d8c9080" y="302.42"/>
      </g>
     </g>
     <g id="text_17">
      <!-- 04-05-21 -->
      <g transform="translate(705.07005 363.88875)rotate(-90)scale(0.12 -0.12)">
       <use xlink:href="#DejaVuSans-30"/>
       <use x="63.623047" xlink:href="#DejaVuSans-34"/>
       <use x="127.246094" xlink:href="#DejaVuSans-2d"/>
       <use x="163.330078" xlink:href="#DejaVuSans-30"/>
       <use x="226.953125" xlink:href="#DejaVuSans-35"/>
       <use x="290.576172" xlink:href="#DejaVuSans-2d"/>
       <use x="326.660156" xlink:href="#DejaVuSans-32"/>
       <use x="390.283203" xlink:href="#DejaVuSans-31"/>
      </g>
     </g>
    </g>
    <g id="xtick_18">
     <g id="line2d_35">
      <path clip-path="url(#p04c726ad5d)" d="M 741.8656 302.42 
L 741.8656 79.7376 
" style="fill:none;stroke:#666666;stroke-linecap:square;stroke-opacity:0.3;stroke-width:0.4;"/>
     </g>
     <g id="line2d_36">
      <g>
       <use style="stroke:#000000;stroke-width:0.8;" x="741.8656" xlink:href="#mf11d8c9080" y="302.42"/>
      </g>
     </g>
     <g id="text_18">
      <!-- 05-05-21 -->
      <g transform="translate(745.17685 363.88875)rotate(-90)scale(0.12 -0.12)">
       <use xlink:href="#DejaVuSans-30"/>
       <use x="63.623047" xlink:href="#DejaVuSans-35"/>
       <use x="127.246094" xlink:href="#DejaVuSans-2d"/>
       <use x="163.330078" xlink:href="#DejaVuSans-30"/>
       <use x="226.953125" xlink:href="#DejaVuSans-35"/>
       <use x="290.576172" xlink:href="#DejaVuSans-2d"/>
       <use x="326.660156" xlink:href="#DejaVuSans-32"/>
       <use x="390.283203" xlink:href="#DejaVuSans-31"/>
      </g>
     </g>
    </g>
    <g id="xtick_19">
     <g id="line2d_37">
      <path clip-path="url(#p04c726ad5d)" d="M 781.9724 302.42 
L 781.9724 79.7376 
" style="fill:none;stroke:#666666;stroke-linecap:square;stroke-opacity:0.3;stroke-width:0.4;"/>
     </g>
     <g id="line2d_38">
      <g>
       <use style="stroke:#000000;stroke-width:0.8;" x="781.9724" xlink:href="#mf11d8c9080" y="302.42"/>
      </g>
     </g>
     <g id="text_19">
      <!-- 06-05-21 -->
      <g transform="translate(785.28365 363.88875)rotate(-90)scale(0.12 -0.12)">
       <use xlink:href="#DejaVuSans-30"/>
       <use x="63.623047" xlink:href="#DejaVuSans-36"/>
       <use x="127.246094" xlink:href="#DejaVuSans-2d"/>
       <use x="163.330078" xlink:href="#DejaVuSans-30"/>
       <use x="226.953125" xlink:href="#DejaVuSans-35"/>
       <use x="290.576172" xlink:href="#DejaVuSans-2d"/>
       <use x="326.660156" xlink:href="#DejaVuSans-32"/>
       <use x="390.283203" xlink:href="#DejaVuSans-31"/>
      </g>
     </g>
    </g>
    <g id="xtick_20">
     <g id="line2d_39">
      <path clip-path="url(#p04c726ad5d)" d="M 822.0792 302.42 
L 822.0792 79.7376 
" style="fill:none;stroke:#666666;stroke-linecap:square;stroke-opacity:0.3;stroke-width:0.4;"/>
     </g>
     <g id="line2d_40">
      <g>
       <use style="stroke:#000000;stroke-width:0.8;" x="822.0792" xlink:href="#mf11d8c9080" y="302.42"/>
      </g>
     </g>
     <g id="text_20">
      <!-- 07-05-21 -->
      <g transform="translate(825.39045 363.88875)rotate(-90)scale(0.12 -0.12)">
       <use xlink:href="#DejaVuSans-30"/>
       <use x="63.623047" xlink:href="#DejaVuSans-37"/>
       <use x="127.246094" xlink:href="#DejaVuSans-2d"/>
       <use x="163.330078" xlink:href="#DejaVuSans-30"/>
       <use x="226.953125" xlink:href="#DejaVuSans-35"/>
       <use x="290.576172" xlink:href="#DejaVuSans-2d"/>
       <use x="326.660156" xlink:href="#DejaVuSans-32"/>
       <use x="390.283203" xlink:href="#DejaVuSans-31"/>
      </g>
     </g>
    </g>
    <g id="xtick_21">
     <g id="line2d_41">
      <path clip-path="url(#p04c726ad5d)" d="M 862.186 302.42 
L 862.186 79.7376 
" style="fill:none;stroke:#666666;stroke-linecap:square;stroke-opacity:0.3;stroke-width:0.4;"/>
     </g>
     <g id="line2d_42">
      <g>
       <use style="stroke:#000000;stroke-width:0.8;" x="862.186" xlink:href="#mf11d8c9080" y="302.42"/>
      </g>
     </g>
     <g id="text_21">
      <!-- 08-05-21 -->
      <g transform="translate(865.49725 363.88875)rotate(-90)scale(0.12 -0.12)">
       <use xlink:href="#DejaVuSans-30"/>
       <use x="63.623047" xlink:href="#DejaVuSans-38"/>
       <use x="127.246094" xlink:href="#DejaVuSans-2d"/>
       <use x="163.330078" xlink:href="#DejaVuSans-30"/>
       <use x="226.953125" xlink:href="#DejaVuSans-35"/>
       <use x="290.576172" xlink:href="#DejaVuSans-2d"/>
       <use x="326.660156" xlink:href="#DejaVuSans-32"/>
       <use x="390.283203" xlink:href="#DejaVuSans-31"/>
      </g>
     </g>
    </g>
    <g id="xtick_22">
     <g id="line2d_43">
      <path clip-path="url(#p04c726ad5d)" d="M 902.2928 302.42 
L 902.2928 79.7376 
" style="fill:none;stroke:#666666;stroke-linecap:square;stroke-opacity:0.3;stroke-width:0.4;"/>
     </g>
     <g id="line2d_44">
      <g>
       <use style="stroke:#000000;stroke-width:0.8;" x="902.2928" xlink:href="#mf11d8c9080" y="302.42"/>
      </g>
     </g>
     <g id="text_22">
      <!-- 09-05-21 -->
      <g transform="translate(905.60405 363.88875)rotate(-90)scale(0.12 -0.12)">
       <use xlink:href="#DejaVuSans-30"/>
       <use x="63.623047" xlink:href="#DejaVuSans-39"/>
       <use x="127.246094" xlink:href="#DejaVuSans-2d"/>
       <use x="163.330078" xlink:href="#DejaVuSans-30"/>
       <use x="226.953125" xlink:href="#DejaVuSans-35"/>
       <use x="290.576172" xlink:href="#DejaVuSans-2d"/>
       <use x="326.660156" xlink:href="#DejaVuSans-32"/>
       <use x="390.283203" xlink:href="#DejaVuSans-31"/>
      </g>
     </g>
    </g>
    <g id="xtick_23">
     <g id="line2d_45">
      <path clip-path="url(#p04c726ad5d)" d="M 942.3996 302.42 
L 942.3996 79.7376 
" style="fill:none;stroke:#666666;stroke-linecap:square;stroke-opacity:0.3;stroke-width:0.4;"/>
     </g>
     <g id="line2d_46">
      <g>
       <use style="stroke:#000000;stroke-width:0.8;" x="942.3996" xlink:href="#mf11d8c9080" y="302.42"/>
      </g>
     </g>
     <g id="text_23">
      <!-- 10-05-21 -->
      <g transform="translate(945.71085 363.88875)rotate(-90)scale(0.12 -0.12)">
       <use xlink:href="#DejaVuSans-31"/>
       <use x="63.623047" xlink:href="#DejaVuSans-30"/>
       <use x="127.246094" xlink:href="#DejaVuSans-2d"/>
       <use x="163.330078" xlink:href="#DejaVuSans-30"/>
       <use x="226.953125" xlink:href="#DejaVuSans-35"/>
       <use x="290.576172" xlink:href="#DejaVuSans-2d"/>
       <use x="326.660156" xlink:href="#DejaVuSans-32"/>
       <use x="390.283203" xlink:href="#DejaVuSans-31"/>
      </g>
     </g>
    </g>
    <g id="xtick_24">
     <g id="line2d_47">
      <path clip-path="url(#p04c726ad5d)" d="M 982.5064 302.42 
L 982.5064 79.7376 
" style="fill:none;stroke:#666666;stroke-linecap:square;stroke-opacity:0.3;stroke-width:0.4;"/>
     </g>
     <g id="line2d_48">
      <g>
       <use style="stroke:#000000;stroke-width:0.8;" x="982.5064" xlink:href="#mf11d8c9080" y="302.42"/>
      </g>
     </g>
     <g id="text_24">
      <!-- 11-05-21 -->
      <g transform="translate(985.81765 363.88875)rotate(-90)scale(0.12 -0.12)">
       <use xlink:href="#DejaVuSans-31"/>
       <use x="63.623047" xlink:href="#DejaVuSans-31"/>
       <use x="127.246094" xlink:href="#DejaVuSans-2d"/>
       <use x="163.330078" xlink:href="#DejaVuSans-30"/>
       <use x="226.953125" xlink:href="#DejaVuSans-35"/>
       <use x="290.576172" xlink:href="#DejaVuSans-2d"/>
       <use x="326.660156" xlink:href="#DejaVuSans-32"/>
       <use x="390.283203" xlink:href="#DejaVuSans-31"/>
      </g>
     </g>
    </g>
    <g id="xtick_25">
     <g id="line2d_49">
      <path clip-path="url(#p04c726ad5d)" d="M 1022.6132 302.42 
L 1022.6132 79.7376 
" style="fill:none;stroke:#666666;stroke-linecap:square;stroke-opacity:0.3;stroke-width:0.4;"/>
     </g>
     <g id="line2d_50">
      <g>
       <use style="stroke:#000000;stroke-width:0.8;" x="1022.6132" xlink:href="#mf11d8c9080" y="302.42"/>
      </g>
     </g>
     <g id="text_25">
      <!-- 12-05-21 -->
      <g transform="translate(1025.92445 363.88875)rotate(-90)scale(0.12 -0.12)">
       <use xlink:href="#DejaVuSans-31"/>
       <use x="63.623047" xlink:href="#DejaVuSans-32"/>
       <use x="127.246094" xlink:href="#DejaVuSans-2d"/>
       <use x="163.330078" xlink:href="#DejaVuSans-30"/>
       <use x="226.953125" xlink:href="#DejaVuSans-35"/>
       <use x="290.576172" xlink:href="#DejaVuSans-2d"/>
       <use x="326.660156" xlink:href="#DejaVuSans-32"/>
       <use x="390.283203" xlink:href="#DejaVuSans-31"/>
      </g>
     </g>
    </g>
    <g id="xtick_26">
     <g id="line2d_51">
      <path clip-path="url(#p04c726ad5d)" d="M 1062.72 302.42 
L 1062.72 79.7376 
" style="fill:none;stroke:#666666;stroke-linecap:square;stroke-opacity:0.3;stroke-width:0.4;"/>
     </g>
     <g id="line2d_52">
      <g>
       <use style="stroke:#000000;stroke-width:0.8;" x="1062.72" xlink:href="#mf11d8c9080" y="302.42"/>
      </g>
     </g>
     <g id="text_26">
      <!-- 13-05-21 -->
      <g transform="translate(1066.03125 363.88875)rotate(-90)scale(0.12 -0.12)">
       <use xlink:href="#DejaVuSans-31"/>
       <use x="63.623047" xlink:href="#DejaVuSans-33"/>
       <use x="127.246094" xlink:href="#DejaVuSans-2d"/>
       <use x="163.330078" xlink:href="#DejaVuSans-30"/>
       <use x="226.953125" xlink:href="#DejaVuSans-35"/>
       <use x="290.576172" xlink:href="#DejaVuSans-2d"/>
       <use x="326.660156" xlink:href="#DejaVuSans-32"/>
       <use x="390.283203" xlink:href="#DejaVuSans-31"/>
      </g>
     </g>
    </g>
   </g>
   <g id="matplotlib.axis_2">
    <g id="ytick_1">
     <g id="line2d_53">
      <path clip-path="url(#p04c726ad5d)" d="M 60.05 286.514114 
L 1062.72 286.514114 
" style="fill:none;stroke:#666666;stroke-linecap:square;stroke-opacity:0.3;stroke-width:0.4;"/>
     </g>
     <g id="line2d_54">
      <defs>
       <path d="M 0 0 
L -3.5 0 
" id="m1aaf874ecf" style="stroke:#000000;stroke-width:0.8;"/>
      </defs>
      <g>
       <use style="stroke:#000000;stroke-width:0.8;" x="60.05" xlink:href="#m1aaf874ecf" y="286.514114"/>
      </g>
     </g>
     <g id="text_27">
      <!-- −40 -->
      <g transform="translate(27.724375 291.073177)scale(0.12 -0.12)">
       <defs>
        <path d="M 678 2272 
L 4684 2272 
L 4684 1741 
L 678 1741 
L 678 2272 
z
" id="DejaVuSans-2212" transform="scale(0.015625)"/>
       </defs>
       <use xlink:href="#DejaVuSans-2212"/>
       <use x="83.789062" xlink:href="#DejaVuSans-34"/>
       <use x="147.412109" xlink:href="#DejaVuSans-30"/>
      </g>
     </g>
    </g>
    <g id="ytick_2">
     <g id="line2d_55">
      <path clip-path="url(#p04c726ad5d)" d="M 60.05 244.098419 
L 1062.72 244.098419 
" style="fill:none;stroke:#666666;stroke-linecap:square;stroke-opacity:0.3;stroke-width:0.4;"/>
     </g>
     <g id="line2d_56">
      <g>
       <use style="stroke:#000000;stroke-width:0.8;" x="60.05" xlink:href="#m1aaf874ecf" y="244.098419"/>
      </g>
     </g>
     <g id="text_28">
      <!-- −30 -->
      <g transform="translate(27.724375 248.657482)scale(0.12 -0.12)">
       <use xlink:href="#DejaVuSans-2212"/>
       <use x="83.789062" xlink:href="#DejaVuSans-33"/>
       <use x="147.412109" xlink:href="#DejaVuSans-30"/>
      </g>
     </g>
    </g>
    <g id="ytick_3">
     <g id="line2d_57">
      <path clip-path="url(#p04c726ad5d)" d="M 60.05 201.682724 
L 1062.72 201.682724 
" style="fill:none;stroke:#666666;stroke-linecap:square;stroke-opacity:0.3;stroke-width:0.4;"/>
     </g>
     <g id="line2d_58">
      <g>
       <use style="stroke:#000000;stroke-width:0.8;" x="60.05" xlink:href="#m1aaf874ecf" y="201.682724"/>
      </g>
     </g>
     <g id="text_29">
      <!-- −20 -->
      <g transform="translate(27.724375 206.241786)scale(0.12 -0.12)">
       <use xlink:href="#DejaVuSans-2212"/>
       <use x="83.789062" xlink:href="#DejaVuSans-32"/>
       <use x="147.412109" xlink:href="#DejaVuSans-30"/>
      </g>
     </g>
    </g>
    <g id="ytick_4">
     <g id="line2d_59">
      <path clip-path="url(#p04c726ad5d)" d="M 60.05 159.267029 
L 1062.72 159.267029 
" style="fill:none;stroke:#666666;stroke-linecap:square;stroke-opacity:0.3;stroke-width:0.4;"/>
     </g>
     <g id="line2d_60">
      <g>
       <use style="stroke:#000000;stroke-width:0.8;" x="60.05" xlink:href="#m1aaf874ecf" y="159.267029"/>
      </g>
     </g>
     <g id="text_30">
      <!-- −10 -->
      <g transform="translate(27.724375 163.826091)scale(0.12 -0.12)">
       <use xlink:href="#DejaVuSans-2212"/>
       <use x="83.789062" xlink:href="#DejaVuSans-31"/>
       <use x="147.412109" xlink:href="#DejaVuSans-30"/>
      </g>
     </g>
    </g>
    <g id="ytick_5">
     <g id="line2d_61">
      <path clip-path="url(#p04c726ad5d)" d="M 60.05 116.851333 
L 1062.72 116.851333 
" style="fill:none;stroke:#666666;stroke-linecap:square;stroke-opacity:0.3;stroke-width:0.4;"/>
     </g>
     <g id="line2d_62">
      <g>
       <use style="stroke:#000000;stroke-width:0.8;" x="60.05" xlink:href="#m1aaf874ecf" y="116.851333"/>
      </g>
     </g>
     <g id="text_31">
      <!-- 0 -->
      <g transform="translate(45.415 121.410396)scale(0.12 -0.12)">
       <use xlink:href="#DejaVuSans-30"/>
      </g>
     </g>
    </g>
    <g id="ytick_6">
     <g id="line2d_63">
      <path clip-path="url(#p04c726ad5d)" d="M 60.05 294.997253 
L 1062.72 294.997253 
" style="fill:none;stroke:#999999;stroke-linecap:square;stroke-opacity:0.3;stroke-width:0.25;"/>
     </g>
     <g id="line2d_64">
      <defs>
       <path d="M 0 0 
L -2 0 
" id="m4a56f53dd3" style="stroke:#000000;stroke-width:0.6;"/>
      </defs>
      <g>
       <use style="stroke:#000000;stroke-width:0.6;" x="60.05" xlink:href="#m4a56f53dd3" y="294.997253"/>
      </g>
     </g>
    </g>
    <g id="ytick_7">
     <g id="line2d_65">
      <path clip-path="url(#p04c726ad5d)" d="M 60.05 278.030975 
L 1062.72 278.030975 
" style="fill:none;stroke:#999999;stroke-linecap:square;stroke-opacity:0.3;stroke-width:0.25;"/>
     </g>
     <g id="line2d_66">
      <g>
       <use style="stroke:#000000;stroke-width:0.6;" x="60.05" xlink:href="#m4a56f53dd3" y="278.030975"/>
      </g>
     </g>
    </g>
    <g id="ytick_8">
     <g id="line2d_67">
      <path clip-path="url(#p04c726ad5d)" d="M 60.05 269.547836 
L 1062.72 269.547836 
" style="fill:none;stroke:#999999;stroke-linecap:square;stroke-opacity:0.3;stroke-width:0.25;"/>
     </g>
     <g id="line2d_68">
      <g>
       <use style="stroke:#000000;stroke-width:0.6;" x="60.05" xlink:href="#m4a56f53dd3" y="269.547836"/>
      </g>
     </g>
    </g>
    <g id="ytick_9">
     <g id="line2d_69">
      <path clip-path="url(#p04c726ad5d)" d="M 60.05 261.064697 
L 1062.72 261.064697 
" style="fill:none;stroke:#999999;stroke-linecap:square;stroke-opacity:0.3;stroke-width:0.25;"/>
     </g>
     <g id="line2d_70">
      <g>
       <use style="stroke:#000000;stroke-width:0.6;" x="60.05" xlink:href="#m4a56f53dd3" y="261.064697"/>
      </g>
     </g>
    </g>
    <g id="ytick_10">
     <g id="line2d_71">
      <path clip-path="url(#p04c726ad5d)" d="M 60.05 252.581558 
L 1062.72 252.581558 
" style="fill:none;stroke:#999999;stroke-linecap:square;stroke-opacity:0.3;stroke-width:0.25;"/>
     </g>
     <g id="line2d_72">
      <g>
       <use style="stroke:#000000;stroke-width:0.6;" x="60.05" xlink:href="#m4a56f53dd3" y="252.581558"/>
      </g>
     </g>
    </g>
    <g id="ytick_11">
     <g id="line2d_73">
      <path clip-path="url(#p04c726ad5d)" d="M 60.05 235.61528 
L 1062.72 235.61528 
" style="fill:none;stroke:#999999;stroke-linecap:square;stroke-opacity:0.3;stroke-width:0.25;"/>
     </g>
     <g id="line2d_74">
      <g>
       <use style="stroke:#000000;stroke-width:0.6;" x="60.05" xlink:href="#m4a56f53dd3" y="235.61528"/>
      </g>
     </g>
    </g>
    <g id="ytick_12">
     <g id="line2d_75">
      <path clip-path="url(#p04c726ad5d)" d="M 60.05 227.132141 
L 1062.72 227.132141 
" style="fill:none;stroke:#999999;stroke-linecap:square;stroke-opacity:0.3;stroke-width:0.25;"/>
     </g>
     <g id="line2d_76">
      <g>
       <use style="stroke:#000000;stroke-width:0.6;" x="60.05" xlink:href="#m4a56f53dd3" y="227.132141"/>
      </g>
     </g>
    </g>
    <g id="ytick_13">
     <g id="line2d_77">
      <path clip-path="url(#p04c726ad5d)" d="M 60.05 218.649002 
L 1062.72 218.649002 
" style="fill:none;stroke:#999999;stroke-linecap:square;stroke-opacity:0.3;stroke-width:0.25;"/>
     </g>
     <g id="line2d_78">
      <g>
       <use style="stroke:#000000;stroke-width:0.6;" x="60.05" xlink:href="#m4a56f53dd3" y="218.649002"/>
      </g>
     </g>
    </g>
    <g id="ytick_14">
     <g id="line2d_79">
      <path clip-path="url(#p04c726ad5d)" d="M 60.05 210.165863 
L 1062.72 210.165863 
" style="fill:none;stroke:#999999;stroke-linecap:square;stroke-opacity:0.3;stroke-width:0.25;"/>
     </g>
     <g id="line2d_80">
      <g>
       <use style="stroke:#000000;stroke-width:0.6;" x="60.05" xlink:href="#m4a56f53dd3" y="210.165863"/>
      </g>
     </g>
    </g>
    <g id="ytick_15">
     <g id="line2d_81">
      <path clip-path="url(#p04c726ad5d)" d="M 60.05 193.199585 
L 1062.72 193.199585 
" style="fill:none;stroke:#999999;stroke-linecap:square;stroke-opacity:0.3;stroke-width:0.25;"/>
     </g>
     <g id="line2d_82">
      <g>
       <use style="stroke:#000000;stroke-width:0.6;" x="60.05" xlink:href="#m4a56f53dd3" y="193.199585"/>
      </g>
     </g>
    </g>
    <g id="ytick_16">
     <g id="line2d_83">
      <path clip-path="url(#p04c726ad5d)" d="M 60.05 184.716446 
L 1062.72 184.716446 
" style="fill:none;stroke:#999999;stroke-linecap:square;stroke-opacity:0.3;stroke-width:0.25;"/>
     </g>
     <g id="line2d_84">
      <g>
       <use style="stroke:#000000;stroke-width:0.6;" x="60.05" xlink:href="#m4a56f53dd3" y="184.716446"/>
      </g>
     </g>
    </g>
    <g id="ytick_17">
     <g id="line2d_85">
      <path clip-path="url(#p04c726ad5d)" d="M 60.05 176.233307 
L 1062.72 176.233307 
" style="fill:none;stroke:#999999;stroke-linecap:square;stroke-opacity:0.3;stroke-width:0.25;"/>
     </g>
     <g id="line2d_86">
      <g>
       <use style="stroke:#000000;stroke-width:0.6;" x="60.05" xlink:href="#m4a56f53dd3" y="176.233307"/>
      </g>
     </g>
    </g>
    <g id="ytick_18">
     <g id="line2d_87">
      <path clip-path="url(#p04c726ad5d)" d="M 60.05 167.750168 
L 1062.72 167.750168 
" style="fill:none;stroke:#999999;stroke-linecap:square;stroke-opacity:0.3;stroke-width:0.25;"/>
     </g>
     <g id="line2d_88">
      <g>
       <use style="stroke:#000000;stroke-width:0.6;" x="60.05" xlink:href="#m4a56f53dd3" y="167.750168"/>
      </g>
     </g>
    </g>
    <g id="ytick_19">
     <g id="line2d_89">
      <path clip-path="url(#p04c726ad5d)" d="M 60.05 150.78389 
L 1062.72 150.78389 
" style="fill:none;stroke:#999999;stroke-linecap:square;stroke-opacity:0.3;stroke-width:0.25;"/>
     </g>
     <g id="line2d_90">
      <g>
       <use style="stroke:#000000;stroke-width:0.6;" x="60.05" xlink:href="#m4a56f53dd3" y="150.78389"/>
      </g>
     </g>
    </g>
    <g id="ytick_20">
     <g id="line2d_91">
      <path clip-path="url(#p04c726ad5d)" d="M 60.05 142.30075 
L 1062.72 142.30075 
" style="fill:none;stroke:#999999;stroke-linecap:square;stroke-opacity:0.3;stroke-width:0.25;"/>
     </g>
     <g id="line2d_92">
      <g>
       <use style="stroke:#000000;stroke-width:0.6;" x="60.05" xlink:href="#m4a56f53dd3" y="142.30075"/>
      </g>
     </g>
    </g>
    <g id="ytick_21">
     <g id="line2d_93">
      <path clip-path="url(#p04c726ad5d)" d="M 60.05 133.817611 
L 1062.72 133.817611 
" style="fill:none;stroke:#999999;stroke-linecap:square;stroke-opacity:0.3;stroke-width:0.25;"/>
     </g>
     <g id="line2d_94">
      <g>
       <use style="stroke:#000000;stroke-width:0.6;" x="60.05" xlink:href="#m4a56f53dd3" y="133.817611"/>
      </g>
     </g>
    </g>
    <g id="ytick_22">
     <g id="line2d_95">
      <path clip-path="url(#p04c726ad5d)" d="M 60.05 125.334472 
L 1062.72 125.334472 
" style="fill:none;stroke:#999999;stroke-linecap:square;stroke-opacity:0.3;stroke-width:0.25;"/>
     </g>
     <g id="line2d_96">
      <g>
       <use style="stroke:#000000;stroke-width:0.6;" x="60.05" xlink:href="#m4a56f53dd3" y="125.334472"/>
      </g>
     </g>
    </g>
    <g id="ytick_23">
     <g id="line2d_97">
      <path clip-path="url(#p04c726ad5d)" d="M 60.05 108.368194 
L 1062.72 108.368194 
" style="fill:none;stroke:#999999;stroke-linecap:square;stroke-opacity:0.3;stroke-width:0.25;"/>
     </g>
     <g id="line2d_98">
      <g>
       <use style="stroke:#000000;stroke-width:0.6;" x="60.05" xlink:href="#m4a56f53dd3" y="108.368194"/>
      </g>
     </g>
    </g>
    <g id="ytick_24">
     <g id="line2d_99">
      <path clip-path="url(#p04c726ad5d)" d="M 60.05 99.885055 
L 1062.72 99.885055 
" style="fill:none;stroke:#999999;stroke-linecap:square;stroke-opacity:0.3;stroke-width:0.25;"/>
     </g>
     <g id="line2d_100">
      <g>
       <use style="stroke:#000000;stroke-width:0.6;" x="60.05" xlink:href="#m4a56f53dd3" y="99.885055"/>
      </g>
     </g>
    </g>
    <g id="ytick_25">
     <g id="line2d_101">
      <path clip-path="url(#p04c726ad5d)" d="M 60.05 91.401916 
L 1062.72 91.401916 
" style="fill:none;stroke:#999999;stroke-linecap:square;stroke-opacity:0.3;stroke-width:0.25;"/>
     </g>
     <g id="line2d_102">
      <g>
       <use style="stroke:#000000;stroke-width:0.6;" x="60.05" xlink:href="#m4a56f53dd3" y="91.401916"/>
      </g>
     </g>
    </g>
    <g id="ytick_26">
     <g id="line2d_103">
      <path clip-path="url(#p04c726ad5d)" d="M 60.05 82.918777 
L 1062.72 82.918777 
" style="fill:none;stroke:#999999;stroke-linecap:square;stroke-opacity:0.3;stroke-width:0.25;"/>
     </g>
     <g id="line2d_104">
      <g>
       <use style="stroke:#000000;stroke-width:0.6;" x="60.05" xlink:href="#m4a56f53dd3" y="82.918777"/>
      </g>
     </g>
    </g>
    <g id="text_32">
     <!-- Asentamiento vert. [mm] -->
     <g transform="translate(21.22875 267.014425)rotate(-90)scale(0.12 -0.12)">
      <defs>
       <path d="M 2188 4044 
L 1331 1722 
L 3047 1722 
L 2188 4044 
z
M 1831 4666 
L 2547 4666 
L 4325 0 
L 3669 0 
L 3244 1197 
L 1141 1197 
L 716 0 
L 50 0 
L 1831 4666 
z
" id="DejaVuSans-41" transform="scale(0.015625)"/>
       <path d="M 2834 3397 
L 2834 2853 
Q 2591 2978 2328 3040 
Q 2066 3103 1784 3103 
Q 1356 3103 1142 2972 
Q 928 2841 928 2578 
Q 928 2378 1081 2264 
Q 1234 2150 1697 2047 
L 1894 2003 
Q 2506 1872 2764 1633 
Q 3022 1394 3022 966 
Q 3022 478 2636 193 
Q 2250 -91 1575 -91 
Q 1294 -91 989 -36 
Q 684 19 347 128 
L 347 722 
Q 666 556 975 473 
Q 1284 391 1588 391 
Q 1994 391 2212 530 
Q 2431 669 2431 922 
Q 2431 1156 2273 1281 
Q 2116 1406 1581 1522 
L 1381 1569 
Q 847 1681 609 1914 
Q 372 2147 372 2553 
Q 372 3047 722 3315 
Q 1072 3584 1716 3584 
Q 2034 3584 2315 3537 
Q 2597 3491 2834 3397 
z
" id="DejaVuSans-73" transform="scale(0.015625)"/>
       <path d="M 3597 1894 
L 3597 1613 
L 953 1613 
Q 991 1019 1311 708 
Q 1631 397 2203 397 
Q 2534 397 2845 478 
Q 3156 559 3463 722 
L 3463 178 
Q 3153 47 2828 -22 
Q 2503 -91 2169 -91 
Q 1331 -91 842 396 
Q 353 884 353 1716 
Q 353 2575 817 3079 
Q 1281 3584 2069 3584 
Q 2775 3584 3186 3129 
Q 3597 2675 3597 1894 
z
M 3022 2063 
Q 3016 2534 2758 2815 
Q 2500 3097 2075 3097 
Q 1594 3097 1305 2825 
Q 1016 2553 972 2059 
L 3022 2063 
z
" id="DejaVuSans-65" transform="scale(0.015625)"/>
       <path d="M 3513 2113 
L 3513 0 
L 2938 0 
L 2938 2094 
Q 2938 2591 2744 2837 
Q 2550 3084 2163 3084 
Q 1697 3084 1428 2787 
Q 1159 2491 1159 1978 
L 1159 0 
L 581 0 
L 581 3500 
L 1159 3500 
L 1159 2956 
Q 1366 3272 1645 3428 
Q 1925 3584 2291 3584 
Q 2894 3584 3203 3211 
Q 3513 2838 3513 2113 
z
" id="DejaVuSans-6e" transform="scale(0.015625)"/>
       <path d="M 1172 4494 
L 1172 3500 
L 2356 3500 
L 2356 3053 
L 1172 3053 
L 1172 1153 
Q 1172 725 1289 603 
Q 1406 481 1766 481 
L 2356 481 
L 2356 0 
L 1766 0 
Q 1100 0 847 248 
Q 594 497 594 1153 
L 594 3053 
L 172 3053 
L 172 3500 
L 594 3500 
L 594 4494 
L 1172 4494 
z
" id="DejaVuSans-74" transform="scale(0.015625)"/>
       <path d="M 2194 1759 
Q 1497 1759 1228 1600 
Q 959 1441 959 1056 
Q 959 750 1161 570 
Q 1363 391 1709 391 
Q 2188 391 2477 730 
Q 2766 1069 2766 1631 
L 2766 1759 
L 2194 1759 
z
M 3341 1997 
L 3341 0 
L 2766 0 
L 2766 531 
Q 2569 213 2275 61 
Q 1981 -91 1556 -91 
Q 1019 -91 701 211 
Q 384 513 384 1019 
Q 384 1609 779 1909 
Q 1175 2209 1959 2209 
L 2766 2209 
L 2766 2266 
Q 2766 2663 2505 2880 
Q 2244 3097 1772 3097 
Q 1472 3097 1187 3025 
Q 903 2953 641 2809 
L 641 3341 
Q 956 3463 1253 3523 
Q 1550 3584 1831 3584 
Q 2591 3584 2966 3190 
Q 3341 2797 3341 1997 
z
" id="DejaVuSans-61" transform="scale(0.015625)"/>
       <path d="M 3328 2828 
Q 3544 3216 3844 3400 
Q 4144 3584 4550 3584 
Q 5097 3584 5394 3201 
Q 5691 2819 5691 2113 
L 5691 0 
L 5113 0 
L 5113 2094 
Q 5113 2597 4934 2840 
Q 4756 3084 4391 3084 
Q 3944 3084 3684 2787 
Q 3425 2491 3425 1978 
L 3425 0 
L 2847 0 
L 2847 2094 
Q 2847 2600 2669 2842 
Q 2491 3084 2119 3084 
Q 1678 3084 1418 2786 
Q 1159 2488 1159 1978 
L 1159 0 
L 581 0 
L 581 3500 
L 1159 3500 
L 1159 2956 
Q 1356 3278 1631 3431 
Q 1906 3584 2284 3584 
Q 2666 3584 2933 3390 
Q 3200 3197 3328 2828 
z
" id="DejaVuSans-6d" transform="scale(0.015625)"/>
       <path d="M 603 3500 
L 1178 3500 
L 1178 0 
L 603 0 
L 603 3500 
z
M 603 4863 
L 1178 4863 
L 1178 4134 
L 603 4134 
L 603 4863 
z
" id="DejaVuSans-69" transform="scale(0.015625)"/>
       <path d="M 1959 3097 
Q 1497 3097 1228 2736 
Q 959 2375 959 1747 
Q 959 1119 1226 758 
Q 1494 397 1959 397 
Q 2419 397 2687 759 
Q 2956 1122 2956 1747 
Q 2956 2369 2687 2733 
Q 2419 3097 1959 3097 
z
M 1959 3584 
Q 2709 3584 3137 3096 
Q 3566 2609 3566 1747 
Q 3566 888 3137 398 
Q 2709 -91 1959 -91 
Q 1206 -91 779 398 
Q 353 888 353 1747 
Q 353 2609 779 3096 
Q 1206 3584 1959 3584 
z
" id="DejaVuSans-6f" transform="scale(0.015625)"/>
       <path id="DejaVuSans-20" transform="scale(0.015625)"/>
       <path d="M 191 3500 
L 800 3500 
L 1894 563 
L 2988 3500 
L 3597 3500 
L 2284 0 
L 1503 0 
L 191 3500 
z
" id="DejaVuSans-76" transform="scale(0.015625)"/>
       <path d="M 2631 2963 
Q 2534 3019 2420 3045 
Q 2306 3072 2169 3072 
Q 1681 3072 1420 2755 
Q 1159 2438 1159 1844 
L 1159 0 
L 581 0 
L 581 3500 
L 1159 3500 
L 1159 2956 
Q 1341 3275 1631 3429 
Q 1922 3584 2338 3584 
Q 2397 3584 2469 3576 
Q 2541 3569 2628 3553 
L 2631 2963 
z
" id="DejaVuSans-72" transform="scale(0.015625)"/>
       <path d="M 684 794 
L 1344 794 
L 1344 0 
L 684 0 
L 684 794 
z
" id="DejaVuSans-2e" transform="scale(0.015625)"/>
       <path d="M 550 4863 
L 1875 4863 
L 1875 4416 
L 1125 4416 
L 1125 -397 
L 1875 -397 
L 1875 -844 
L 550 -844 
L 550 4863 
z
" id="DejaVuSans-5b" transform="scale(0.015625)"/>
       <path d="M 1947 4863 
L 1947 -844 
L 622 -844 
L 622 -397 
L 1369 -397 
L 1369 4416 
L 622 4416 
L 622 4863 
L 1947 4863 
z
" id="DejaVuSans-5d" transform="scale(0.015625)"/>
      </defs>
      <use xlink:href="#DejaVuSans-41"/>
      <use x="68.408203" xlink:href="#DejaVuSans-73"/>
      <use x="120.507812" xlink:href="#DejaVuSans-65"/>
      <use x="182.03125" xlink:href="#DejaVuSans-6e"/>
      <use x="245.410156" xlink:href="#DejaVuSans-74"/>
      <use x="284.619141" xlink:href="#DejaVuSans-61"/>
      <use x="345.898438" xlink:href="#DejaVuSans-6d"/>
      <use x="443.310547" xlink:href="#DejaVuSans-69"/>
      <use x="471.09375" xlink:href="#DejaVuSans-65"/>
      <use x="532.617188" xlink:href="#DejaVuSans-6e"/>
      <use x="595.996094" xlink:href="#DejaVuSans-74"/>
      <use x="635.205078" xlink:href="#DejaVuSans-6f"/>
      <use x="696.386719" xlink:href="#DejaVuSans-20"/>
      <use x="728.173828" xlink:href="#DejaVuSans-76"/>
      <use x="787.353516" xlink:href="#DejaVuSans-65"/>
      <use x="848.876953" xlink:href="#DejaVuSans-72"/>
      <use x="889.990234" xlink:href="#DejaVuSans-74"/>
      <use x="929.199219" xlink:href="#DejaVuSans-2e"/>
      <use x="960.986328" xlink:href="#DejaVuSans-20"/>
      <use x="992.773438" xlink:href="#DejaVuSans-5b"/>
      <use x="1031.787109" xlink:href="#DejaVuSans-6d"/>
      <use x="1129.199219" xlink:href="#DejaVuSans-6d"/>
      <use x="1226.611328" xlink:href="#DejaVuSans-5d"/>
     </g>
    </g>
   </g>
   <g id="line2d_105">
    <path clip-path="url(#p04c726ad5d)" d="M 100.1568 116.851333 
L 140.2636 121.092903 
L 180.3704 125.334472 
L 220.4772 129.576042 
L 260.584 133.817611 
L 300.6908 138.059181 
L 340.7976 142.30075 
L 380.9044 146.54232 
L 421.0112 142.30075 
L 461.118 129.576042 
L 501.2248 125.334472 
L 541.3316 121.092903 
L 581.4384 121.092903 
L 621.5452 129.576042 
L 661.652 133.817611 
L 701.7588 138.059181 
L 741.8656 142.30075 
L 942.3996 146.54232 
L 982.5064 155.025459 
L 1022.6132 159.267029 
" style="fill:none;stroke:#ff0000;stroke-linecap:square;stroke-width:0.75;"/>
   </g>
   <g id="line2d_106">
    <path clip-path="url(#p04c726ad5d)" d="M 100.1568 116.851333 
L 140.2636 116.851333 
L 180.3704 121.092903 
L 220.4772 129.576042 
L 260.584 129.576042 
L 300.6908 129.576042 
L 340.7976 129.576042 
L 380.9044 125.334472 
L 421.0112 121.092903 
L 461.118 133.817611 
L 501.2248 125.334472 
L 541.3316 116.851333 
L 581.4384 121.092903 
L 621.5452 129.576042 
L 661.652 133.817611 
L 701.7588 138.059181 
L 741.8656 142.30075 
L 942.3996 146.54232 
L 982.5064 142.30075 
L 1022.6132 138.059181 
" style="fill:none;stroke:#006400;stroke-linecap:square;stroke-width:0.75;"/>
   </g>
   <g id="line2d_107">
    <path clip-path="url(#p04c726ad5d)" d="M 100.1568 116.851333 
L 140.2636 121.092903 
L 180.3704 125.334472 
L 220.4772 129.576042 
L 260.584 133.817611 
L 300.6908 138.059181 
L 340.7976 133.817611 
L 380.9044 129.576042 
L 421.0112 125.334472 
L 461.118 121.092903 
L 501.2248 125.334472 
L 541.3316 129.576042 
L 581.4384 129.576042 
L 621.5452 133.817611 
L 661.652 138.059181 
L 701.7588 142.30075 
L 741.8656 146.54232 
L 942.3996 150.78389 
L 982.5064 142.30075 
L 1022.6132 146.54232 
" style="fill:none;stroke:#0000ff;stroke-linecap:square;stroke-width:0.75;"/>
   </g>
   <g id="line2d_108">
    <path clip-path="url(#p04c726ad5d)" d="M 60.05 116.851333 
L 1062.72 116.851333 
" style="fill:none;stroke:#000000;stroke-dasharray:2.775,1.2;stroke-dashoffset:0;stroke-width:0.75;"/>
   </g>
   <g id="line2d_109">
    <path clip-path="url(#p04c726ad5d)" d="M 60.05 201.682724 
L 1062.72 201.682724 
" style="fill:none;stroke:#e39f00;stroke-linecap:square;stroke-width:0.75;"/>
   </g>
   <g id="line2d_110">
    <path clip-path="url(#p04c726ad5d)" d="M 60.05 265.306267 
L 1062.72 265.306267 
" style="fill:none;stroke:#ff0000;stroke-linecap:square;stroke-width:0.75;"/>
   </g>
   <g id="patch_3">
    <path d="M 60.05 302.42 
L 60.05 79.7376 
" style="fill:none;stroke:#000000;stroke-linecap:square;stroke-linejoin:miter;stroke-width:0.8;"/>
   </g>
   <g id="patch_4">
    <path d="M 1062.72 302.42 
L 1062.72 79.7376 
" style="fill:none;stroke:#000000;stroke-linecap:square;stroke-linejoin:miter;stroke-width:0.8;"/>
   </g>
   <g id="patch_5">
    <path d="M 60.05 302.42 
L 1062.72 302.42 
" style="fill:none;stroke:#000000;stroke-linecap:square;stroke-linejoin:miter;stroke-width:0.8;"/>
   </g>
   <g id="patch_6">
    <path d="M 60.05 79.7376 
L 1062.72 79.7376 
" style="fill:none;stroke:#000000;stroke-linecap:square;stroke-linejoin:miter;stroke-width:0.8;"/>
   </g>
   <g id="text_33">
    <!-- -20.00 mm -->
    <g style="fill:#e39f00;" transform="translate(80.1034 198.342488)scale(0.1 -0.1)">
     <use xlink:href="#DejaVuSans-2d"/>
     <use x="36.083984" xlink:href="#DejaVuSans-32"/>
     <use x="99.707031" xlink:href="#DejaVuSans-30"/>
     <use x="163.330078" xlink:href="#DejaVuSans-2e"/>
     <use x="195.117188" xlink:href="#DejaVuSans-30"/>
     <use x="258.740234" xlink:href="#DejaVuSans-30"/>
     <use x="322.363281" xlink:href="#DejaVuSans-20"/>
     <use x="354.150391" xlink:href="#DejaVuSans-6d"/>
     <use x="451.5625" xlink:href="#DejaVuSans-6d"/>
    </g>
   </g>
   <g id="text_34">
    <!-- -35.00 mm -->
    <g style="fill:#ff0000;" transform="translate(80.1034 261.966031)scale(0.1 -0.1)">
     <use xlink:href="#DejaVuSans-2d"/>
     <use x="36.083984" xlink:href="#DejaVuSans-33"/>
     <use x="99.707031" xlink:href="#DejaVuSans-35"/>
     <use x="163.330078" xlink:href="#DejaVuSans-2e"/>
     <use x="195.117188" xlink:href="#DejaVuSans-30"/>
     <use x="258.740234" xlink:href="#DejaVuSans-30"/>
     <use x="322.363281" xlink:href="#DejaVuSans-20"/>
     <use x="354.150391" xlink:href="#DejaVuSans-6d"/>
     <use x="451.5625" xlink:href="#DejaVuSans-6d"/>
    </g>
   </g>
   <g id="legend_1">
    <g id="patch_7">
     <path d="M 440.775 47.807995 
L 685.995 47.807995 
Q 688.395 47.807995 688.395 45.407995 
L 688.395 28.994245 
Q 688.395 26.594245 685.995 26.594245 
L 440.775 26.594245 
Q 438.375 26.594245 438.375 28.994245 
L 438.375 45.407995 
Q 438.375 47.807995 440.775 47.807995 
z
" style="fill:#4c4c4c;opacity:0.5;stroke:#4c4c4c;stroke-linejoin:miter;"/>
    </g>
    <g id="patch_8">
     <path d="M 438.775 45.807995 
L 683.995 45.807995 
Q 686.395 45.807995 686.395 43.407995 
L 686.395 26.994245 
Q 686.395 24.594245 683.995 24.594245 
L 438.775 24.594245 
Q 436.375 24.594245 436.375 26.994245 
L 436.375 43.407995 
Q 436.375 45.807995 438.775 45.807995 
z
" style="fill:#ffffff;stroke:#cccccc;stroke-linejoin:miter;"/>
    </g>
    <g id="PathCollection_4">
     <defs>
      <path d="M 0 4.94659 
C 1.311851 4.94659 2.570148 4.425386 3.497767 3.497767 
C 4.425386 2.570148 4.94659 1.311851 4.94659 0 
C 4.94659 -1.311851 4.425386 -2.570148 3.497767 -3.497767 
C 2.570148 -4.425386 1.311851 -4.94659 0 -4.94659 
C -1.311851 -4.94659 -2.570148 -4.425386 -3.497767 -3.497767 
C -4.425386 -2.570148 -4.94659 -1.311851 -4.94659 0 
C -4.94659 1.311851 -4.425386 2.570148 -3.497767 3.497767 
C -2.570148 4.425386 -1.311851 4.94659 0 4.94659 
z
" id="mef9be36ce1" style="stroke:#ff0000;"/>
     </defs>
     <g>
      <use style="fill:#ff0000;stroke:#ff0000;" x="453.175" xlink:href="#mef9be36ce1" y="35.36237"/>
     </g>
    </g>
    <g id="text_35">
     <!-- 0001 -->
     <g transform="translate(474.775 38.51237)scale(0.12 -0.12)">
      <use xlink:href="#DejaVuSans-30"/>
      <use x="63.623047" xlink:href="#DejaVuSans-30"/>
      <use x="127.246094" xlink:href="#DejaVuSans-30"/>
      <use x="190.869141" xlink:href="#DejaVuSans-31"/>
     </g>
    </g>
    <g id="PathCollection_5">
     <defs>
      <path d="M -4.94659 4.94659 
L 4.94659 4.94659 
L 4.94659 -4.94659 
L -4.94659 -4.94659 
z
" id="ma17a4d6506" style="stroke:#006400;"/>
     </defs>
     <g>
      <use style="fill:#006400;stroke:#006400;" x="541.315" xlink:href="#ma17a4d6506" y="35.36237"/>
     </g>
    </g>
    <g id="text_36">
     <!-- 0002 -->
     <g transform="translate(562.915 38.51237)scale(0.12 -0.12)">
      <use xlink:href="#DejaVuSans-30"/>
      <use x="63.623047" xlink:href="#DejaVuSans-30"/>
      <use x="127.246094" xlink:href="#DejaVuSans-30"/>
      <use x="190.869141" xlink:href="#DejaVuSans-32"/>
     </g>
    </g>
    <g id="PathCollection_6">
     <defs>
      <path d="M 0 -4.94659 
L -4.94659 4.94659 
L 4.94659 4.94659 
z
" id="m3933064b9a" style="stroke:#0000ff;"/>
     </defs>
     <g>
      <use style="fill:#0000ff;stroke:#0000ff;" x="629.455" xlink:href="#m3933064b9a" y="35.36237"/>
     </g>
    </g>
    <g id="text_37">
     <!-- 0014 -->
     <g transform="translate(651.055 38.51237)scale(0.12 -0.12)">
      <use xlink:href="#DejaVuSans-30"/>
      <use x="63.623047" xlink:href="#DejaVuSans-30"/>
      <use x="127.246094" xlink:href="#DejaVuSans-31"/>
      <use x="190.869141" xlink:href="#DejaVuSans-34"/>
     </g>
    </g>
   </g>
  </g>
 </g>
 <defs>
  <clipPath id="p04c726ad5d">
   <rect height="222.6824" width="1002.67" x="60.05" y="79.7376"/>
  </clipPath>
 </defs>
</svg>
