<?xml version="1.0" encoding="utf-8" standalone="no"?>
<!DOCTYPE svg PUBLIC "-//W3C//DTD SVG 1.1//EN"
  "http://www.w3.org/Graphics/SVG/1.1/DTD/svg11.dtd">
<svg height="324pt" version="1.1" viewBox="0 0 1080 324" width="1080pt" xmlns="http://www.w3.org/2000/svg" xmlns:xlink="http://www.w3.org/1999/xlink">
 <metadata>
  <rdf:RDF xmlns:cc="http://creativecommons.org/ns#" xmlns:dc="http://purl.org/dc/elements/1.1/" xmlns:rdf="http://www.w3.org/1999/02/22-rdf-syntax-ns#">
   <cc:Work>
    <dc:type rdf:resource="http://purl.org/dc/dcmitype/StillImage"/>
    <dc:date>2021-08-26T16:46:05.277457</dc:date>
    <dc:format>image/svg+xml</dc:format>
    <dc:creator>
     <cc:Agent>
      <dc:title>Matplotlib v3.4.2, https://matplotlib.org/</dc:title>
     </cc:Agent>
    </dc:creator>
   </cc:Work>
  </rdf:RDF>
 </metadata>
 <defs>
  <style type="text/css">*{stroke-linecap:butt;stroke-linejoin:round;}</style>
 </defs>
 <g id="figure_1">
  <g id="patch_1">
   <path d="M 0 324 
L 1080 324 
L 1080 0 
L 0 0 
z
" style="fill:#ffffff;stroke:#000000;stroke-linejoin:miter;stroke-width:1.25;"/>
  </g>
  <g id="axes_1">
   <g id="patch_2">
    <path d="M 55.82 279.16 
L 1066.005 279.16 
L 1066.005 14.76 
L 55.82 14.76 
z
" style="fill:#f5f5f5;"/>
   </g>
   <g id="PathCollection_1">
    <defs>
     <path d="M 0 3 
C 0.795609 3 1.55874 2.683901 2.12132 2.12132 
C 2.683901 1.55874 3 0.795609 3 0 
C 3 -0.795609 2.683901 -1.55874 2.12132 -2.12132 
C 1.55874 -2.683901 0.795609 -3 0 -3 
C -0.795609 -3 -1.55874 -2.683901 -2.12132 -2.12132 
C -2.683901 -1.55874 -3 -0.795609 -3 0 
C -3 0.795609 -2.683901 1.55874 -2.12132 2.12132 
C -1.55874 2.683901 -0.795609 3 0 3 
z
" id="mf0d11e0917" style="stroke:#000000;"/>
    </defs>
    <g clip-path="url(#p4b5de46c68)">
     <use style="stroke:#000000;" x="140.002083" xlink:href="#mf0d11e0917" y="58.826667"/>
     <use style="stroke:#000000;" x="560.9125" xlink:href="#mf0d11e0917" y="58.826667"/>
     <use style="stroke:#000000;" x="981.822917" xlink:href="#mf0d11e0917" y="58.826667"/>
    </g>
   </g>
   <g id="PathCollection_2">
    <defs>
     <path d="M 0 3 
C 0.795609 3 1.55874 2.683901 2.12132 2.12132 
C 2.683901 1.55874 3 0.795609 3 0 
C 3 -0.795609 2.683901 -1.55874 2.12132 -2.12132 
C 1.55874 -2.683901 0.795609 -3 0 -3 
C -0.795609 -3 -1.55874 -2.683901 -2.12132 -2.12132 
C -2.683901 -1.55874 -3 -0.795609 -3 0 
C -3 0.795609 -2.683901 1.55874 -2.12132 2.12132 
C -1.55874 2.683901 -0.795609 3 0 3 
z
" id="m97f468775f" style="stroke:#0a0a0a;"/>
    </defs>
    <g clip-path="url(#p4b5de46c68)">
     <use style="fill:#0a0a0a;stroke:#0a0a0a;" x="140.002083" xlink:href="#m97f468775f" y="67.64"/>
     <use style="fill:#0a0a0a;stroke:#0a0a0a;" x="560.9125" xlink:href="#m97f468775f" y="58.826667"/>
     <use style="fill:#0a0a0a;stroke:#0a0a0a;" x="981.822917" xlink:href="#m97f468775f" y="67.64"/>
    </g>
   </g>
   <g id="PathCollection_3">
    <defs>
     <path d="M 0 3 
C 0.795609 3 1.55874 2.683901 2.12132 2.12132 
C 2.683901 1.55874 3 0.795609 3 0 
C 3 -0.795609 2.683901 -1.55874 2.12132 -2.12132 
C 1.55874 -2.683901 0.795609 -3 0 -3 
C -0.795609 -3 -1.55874 -2.683901 -2.12132 -2.12132 
C -2.683901 -1.55874 -3 -0.795609 -3 0 
C -3 0.795609 -2.683901 1.55874 -2.12132 2.12132 
C -1.55874 2.683901 -0.795609 3 0 3 
z
" id="mb64a7a32af" style="stroke:#131313;"/>
    </defs>
    <g clip-path="url(#p4b5de46c68)">
     <use style="fill:#131313;stroke:#131313;" x="140.002083" xlink:href="#mb64a7a32af" y="76.453333"/>
     <use style="fill:#131313;stroke:#131313;" x="560.9125" xlink:href="#mb64a7a32af" y="67.64"/>
     <use style="fill:#131313;stroke:#131313;" x="981.822917" xlink:href="#mb64a7a32af" y="76.453333"/>
    </g>
   </g>
   <g id="PathCollection_4">
    <defs>
     <path d="M 0 3 
C 0.795609 3 1.55874 2.683901 2.12132 2.12132 
C 2.683901 1.55874 3 0.795609 3 0 
C 3 -0.795609 2.683901 -1.55874 2.12132 -2.12132 
C 1.55874 -2.683901 0.795609 -3 0 -3 
C -0.795609 -3 -1.55874 -2.683901 -2.12132 -2.12132 
C -2.683901 -1.55874 -3 -0.795609 -3 0 
C -3 0.795609 -2.683901 1.55874 -2.12132 2.12132 
C -1.55874 2.683901 -0.795609 3 0 3 
z
" id="md8865a1328" style="stroke:#1d1d1d;"/>
    </defs>
    <g clip-path="url(#p4b5de46c68)">
     <use style="fill:#1d1d1d;stroke:#1d1d1d;" x="140.002083" xlink:href="#md8865a1328" y="85.266667"/>
     <use style="fill:#1d1d1d;stroke:#1d1d1d;" x="560.9125" xlink:href="#md8865a1328" y="85.266667"/>
     <use style="fill:#1d1d1d;stroke:#1d1d1d;" x="981.822917" xlink:href="#md8865a1328" y="85.266667"/>
    </g>
   </g>
   <g id="PathCollection_5">
    <defs>
     <path d="M 0 3 
C 0.795609 3 1.55874 2.683901 2.12132 2.12132 
C 2.683901 1.55874 3 0.795609 3 0 
C 3 -0.795609 2.683901 -1.55874 2.12132 -2.12132 
C 1.55874 -2.683901 0.795609 -3 0 -3 
C -0.795609 -3 -1.55874 -2.683901 -2.12132 -2.12132 
C -2.683901 -1.55874 -3 -0.795609 -3 0 
C -3 0.795609 -2.683901 1.55874 -2.12132 2.12132 
C -1.55874 2.683901 -0.795609 3 0 3 
z
" id="m035a03efe2" style="stroke:#262626;"/>
    </defs>
    <g clip-path="url(#p4b5de46c68)">
     <use style="fill:#262626;stroke:#262626;" x="140.002083" xlink:href="#m035a03efe2" y="94.08"/>
     <use style="fill:#262626;stroke:#262626;" x="560.9125" xlink:href="#m035a03efe2" y="85.266667"/>
     <use style="fill:#262626;stroke:#262626;" x="981.822917" xlink:href="#m035a03efe2" y="94.08"/>
    </g>
   </g>
   <g id="PathCollection_6">
    <defs>
     <path d="M 0 3 
C 0.795609 3 1.55874 2.683901 2.12132 2.12132 
C 2.683901 1.55874 3 0.795609 3 0 
C 3 -0.795609 2.683901 -1.55874 2.12132 -2.12132 
C 1.55874 -2.683901 0.795609 -3 0 -3 
C -0.795609 -3 -1.55874 -2.683901 -2.12132 -2.12132 
C -2.683901 -1.55874 -3 -0.795609 -3 0 
C -3 0.795609 -2.683901 1.55874 -2.12132 2.12132 
C -1.55874 2.683901 -0.795609 3 0 3 
z
" id="mdceb6320ee" style="stroke:#303030;"/>
    </defs>
    <g clip-path="url(#p4b5de46c68)">
     <use style="fill:#303030;stroke:#303030;" x="140.002083" xlink:href="#mdceb6320ee" y="102.893333"/>
     <use style="fill:#303030;stroke:#303030;" x="560.9125" xlink:href="#mdceb6320ee" y="85.266667"/>
     <use style="fill:#303030;stroke:#303030;" x="981.822917" xlink:href="#mdceb6320ee" y="102.893333"/>
    </g>
   </g>
   <g id="PathCollection_7">
    <defs>
     <path d="M 0 3 
C 0.795609 3 1.55874 2.683901 2.12132 2.12132 
C 2.683901 1.55874 3 0.795609 3 0 
C 3 -0.795609 2.683901 -1.55874 2.12132 -2.12132 
C 1.55874 -2.683901 0.795609 -3 0 -3 
C -0.795609 -3 -1.55874 -2.683901 -2.12132 -2.12132 
C -2.683901 -1.55874 -3 -0.795609 -3 0 
C -3 0.795609 -2.683901 1.55874 -2.12132 2.12132 
C -1.55874 2.683901 -0.795609 3 0 3 
z
" id="mf49cabe928" style="stroke:#393939;"/>
    </defs>
    <g clip-path="url(#p4b5de46c68)">
     <use style="fill:#393939;stroke:#393939;" x="140.002083" xlink:href="#mf49cabe928" y="111.706667"/>
     <use style="fill:#393939;stroke:#393939;" x="560.9125" xlink:href="#mf49cabe928" y="85.266667"/>
     <use style="fill:#393939;stroke:#393939;" x="981.822917" xlink:href="#mf49cabe928" y="94.08"/>
    </g>
   </g>
   <g id="PathCollection_8">
    <defs>
     <path d="M 0 3 
C 0.795609 3 1.55874 2.683901 2.12132 2.12132 
C 2.683901 1.55874 3 0.795609 3 0 
C 3 -0.795609 2.683901 -1.55874 2.12132 -2.12132 
C 1.55874 -2.683901 0.795609 -3 0 -3 
C -0.795609 -3 -1.55874 -2.683901 -2.12132 -2.12132 
C -2.683901 -1.55874 -3 -0.795609 -3 0 
C -3 0.795609 -2.683901 1.55874 -2.12132 2.12132 
C -1.55874 2.683901 -0.795609 3 0 3 
z
" id="m5378285102" style="stroke:#434343;"/>
    </defs>
    <g clip-path="url(#p4b5de46c68)">
     <use style="fill:#434343;stroke:#434343;" x="140.002083" xlink:href="#m5378285102" y="120.52"/>
     <use style="fill:#434343;stroke:#434343;" x="560.9125" xlink:href="#m5378285102" y="76.453333"/>
     <use style="fill:#434343;stroke:#434343;" x="981.822917" xlink:href="#m5378285102" y="85.266667"/>
    </g>
   </g>
   <g id="PathCollection_9">
    <defs>
     <path d="M 0 3 
C 0.795609 3 1.55874 2.683901 2.12132 2.12132 
C 2.683901 1.55874 3 0.795609 3 0 
C 3 -0.795609 2.683901 -1.55874 2.12132 -2.12132 
C 1.55874 -2.683901 0.795609 -3 0 -3 
C -0.795609 -3 -1.55874 -2.683901 -2.12132 -2.12132 
C -2.683901 -1.55874 -3 -0.795609 -3 0 
C -3 0.795609 -2.683901 1.55874 -2.12132 2.12132 
C -1.55874 2.683901 -0.795609 3 0 3 
z
" id="m569d81b8ec" style="stroke:#4c4c4c;"/>
    </defs>
    <g clip-path="url(#p4b5de46c68)">
     <use style="fill:#4c4c4c;stroke:#4c4c4c;" x="140.002083" xlink:href="#m569d81b8ec" y="111.706667"/>
     <use style="fill:#4c4c4c;stroke:#4c4c4c;" x="560.9125" xlink:href="#m569d81b8ec" y="67.64"/>
     <use style="fill:#4c4c4c;stroke:#4c4c4c;" x="981.822917" xlink:href="#m569d81b8ec" y="76.453333"/>
    </g>
   </g>
   <g id="PathCollection_10">
    <defs>
     <path d="M 0 3 
C 0.795609 3 1.55874 2.683901 2.12132 2.12132 
C 2.683901 1.55874 3 0.795609 3 0 
C 3 -0.795609 2.683901 -1.55874 2.12132 -2.12132 
C 1.55874 -2.683901 0.795609 -3 0 -3 
C -0.795609 -3 -1.55874 -2.683901 -2.12132 -2.12132 
C -2.683901 -1.55874 -3 -0.795609 -3 0 
C -3 0.795609 -2.683901 1.55874 -2.12132 2.12132 
C -1.55874 2.683901 -0.795609 3 0 3 
z
" id="m3b3f17c9e2" style="stroke:#565656;"/>
    </defs>
    <g clip-path="url(#p4b5de46c68)">
     <use style="fill:#565656;stroke:#565656;" x="140.002083" xlink:href="#m3b3f17c9e2" y="85.266667"/>
     <use style="fill:#565656;stroke:#565656;" x="560.9125" xlink:href="#m3b3f17c9e2" y="94.08"/>
     <use style="fill:#565656;stroke:#565656;" x="981.822917" xlink:href="#m3b3f17c9e2" y="67.64"/>
    </g>
   </g>
   <g id="PathCollection_11">
    <defs>
     <path d="M 0 3 
C 0.795609 3 1.55874 2.683901 2.12132 2.12132 
C 2.683901 1.55874 3 0.795609 3 0 
C 3 -0.795609 2.683901 -1.55874 2.12132 -2.12132 
C 1.55874 -2.683901 0.795609 -3 0 -3 
C -0.795609 -3 -1.55874 -2.683901 -2.12132 -2.12132 
C -2.683901 -1.55874 -3 -0.795609 -3 0 
C -3 0.795609 -2.683901 1.55874 -2.12132 2.12132 
C -1.55874 2.683901 -0.795609 3 0 3 
z
" id="m89409e3b26" style="stroke:#606060;"/>
    </defs>
    <g clip-path="url(#p4b5de46c68)">
     <use style="fill:#606060;stroke:#606060;" x="140.002083" xlink:href="#m89409e3b26" y="76.453333"/>
     <use style="fill:#606060;stroke:#606060;" x="560.9125" xlink:href="#m89409e3b26" y="76.453333"/>
     <use style="fill:#606060;stroke:#606060;" x="981.822917" xlink:href="#m89409e3b26" y="76.453333"/>
    </g>
   </g>
   <g id="PathCollection_12">
    <defs>
     <path d="M 0 3 
C 0.795609 3 1.55874 2.683901 2.12132 2.12132 
C 2.683901 1.55874 3 0.795609 3 0 
C 3 -0.795609 2.683901 -1.55874 2.12132 -2.12132 
C 1.55874 -2.683901 0.795609 -3 0 -3 
C -0.795609 -3 -1.55874 -2.683901 -2.12132 -2.12132 
C -2.683901 -1.55874 -3 -0.795609 -3 0 
C -3 0.795609 -2.683901 1.55874 -2.12132 2.12132 
C -1.55874 2.683901 -0.795609 3 0 3 
z
" id="mfcef823ed6" style="stroke:#696969;"/>
    </defs>
    <g clip-path="url(#p4b5de46c68)">
     <use style="fill:#696969;stroke:#696969;" x="140.002083" xlink:href="#mfcef823ed6" y="67.64"/>
     <use style="fill:#696969;stroke:#696969;" x="560.9125" xlink:href="#mfcef823ed6" y="58.826667"/>
     <use style="fill:#696969;stroke:#696969;" x="981.822917" xlink:href="#mfcef823ed6" y="85.266667"/>
    </g>
   </g>
   <g id="PathCollection_13">
    <defs>
     <path d="M 0 3 
C 0.795609 3 1.55874 2.683901 2.12132 2.12132 
C 2.683901 1.55874 3 0.795609 3 0 
C 3 -0.795609 2.683901 -1.55874 2.12132 -2.12132 
C 1.55874 -2.683901 0.795609 -3 0 -3 
C -0.795609 -3 -1.55874 -2.683901 -2.12132 -2.12132 
C -2.683901 -1.55874 -3 -0.795609 -3 0 
C -3 0.795609 -2.683901 1.55874 -2.12132 2.12132 
C -1.55874 2.683901 -0.795609 3 0 3 
z
" id="m1ffa9bbd01" style="stroke:#737373;"/>
    </defs>
    <g clip-path="url(#p4b5de46c68)">
     <use style="fill:#737373;stroke:#737373;" x="140.002083" xlink:href="#m1ffa9bbd01" y="67.64"/>
     <use style="fill:#737373;stroke:#737373;" x="560.9125" xlink:href="#m1ffa9bbd01" y="67.64"/>
     <use style="fill:#737373;stroke:#737373;" x="981.822917" xlink:href="#m1ffa9bbd01" y="85.266667"/>
    </g>
   </g>
   <g id="PathCollection_14">
    <defs>
     <path d="M 0 3 
C 0.795609 3 1.55874 2.683901 2.12132 2.12132 
C 2.683901 1.55874 3 0.795609 3 0 
C 3 -0.795609 2.683901 -1.55874 2.12132 -2.12132 
C 1.55874 -2.683901 0.795609 -3 0 -3 
C -0.795609 -3 -1.55874 -2.683901 -2.12132 -2.12132 
C -2.683901 -1.55874 -3 -0.795609 -3 0 
C -3 0.795609 -2.683901 1.55874 -2.12132 2.12132 
C -1.55874 2.683901 -0.795609 3 0 3 
z
" id="m83f0af2a14" style="stroke:#7c7c7c;"/>
    </defs>
    <g clip-path="url(#p4b5de46c68)">
     <use style="fill:#7c7c7c;stroke:#7c7c7c;" x="140.002083" xlink:href="#m83f0af2a14" y="85.266667"/>
     <use style="fill:#7c7c7c;stroke:#7c7c7c;" x="560.9125" xlink:href="#m83f0af2a14" y="85.266667"/>
     <use style="fill:#7c7c7c;stroke:#7c7c7c;" x="981.822917" xlink:href="#m83f0af2a14" y="94.08"/>
    </g>
   </g>
   <g id="PathCollection_15">
    <defs>
     <path d="M 0 3 
C 0.795609 3 1.55874 2.683901 2.12132 2.12132 
C 2.683901 1.55874 3 0.795609 3 0 
C 3 -0.795609 2.683901 -1.55874 2.12132 -2.12132 
C 1.55874 -2.683901 0.795609 -3 0 -3 
C -0.795609 -3 -1.55874 -2.683901 -2.12132 -2.12132 
C -2.683901 -1.55874 -3 -0.795609 -3 0 
C -3 0.795609 -2.683901 1.55874 -2.12132 2.12132 
C -1.55874 2.683901 -0.795609 3 0 3 
z
" id="m66d39b6cb4" style="stroke:#868686;"/>
    </defs>
    <g clip-path="url(#p4b5de46c68)">
     <use style="fill:#868686;stroke:#868686;" x="140.002083" xlink:href="#m66d39b6cb4" y="94.08"/>
     <use style="fill:#868686;stroke:#868686;" x="560.9125" xlink:href="#m66d39b6cb4" y="94.08"/>
     <use style="fill:#868686;stroke:#868686;" x="981.822917" xlink:href="#m66d39b6cb4" y="102.893333"/>
    </g>
   </g>
   <g id="PathCollection_16">
    <defs>
     <path d="M 0 3 
C 0.795609 3 1.55874 2.683901 2.12132 2.12132 
C 2.683901 1.55874 3 0.795609 3 0 
C 3 -0.795609 2.683901 -1.55874 2.12132 -2.12132 
C 1.55874 -2.683901 0.795609 -3 0 -3 
C -0.795609 -3 -1.55874 -2.683901 -2.12132 -2.12132 
C -2.683901 -1.55874 -3 -0.795609 -3 0 
C -3 0.795609 -2.683901 1.55874 -2.12132 2.12132 
C -1.55874 2.683901 -0.795609 3 0 3 
z
" id="m275d0967d0" style="stroke:#8f8f8f;"/>
    </defs>
    <g clip-path="url(#p4b5de46c68)">
     <use style="fill:#8f8f8f;stroke:#8f8f8f;" x="140.002083" xlink:href="#m275d0967d0" y="102.893333"/>
     <use style="fill:#8f8f8f;stroke:#8f8f8f;" x="560.9125" xlink:href="#m275d0967d0" y="102.893333"/>
     <use style="fill:#8f8f8f;stroke:#8f8f8f;" x="981.822917" xlink:href="#m275d0967d0" y="111.706667"/>
    </g>
   </g>
   <g id="PathCollection_17">
    <defs>
     <path d="M 0 3 
C 0.795609 3 1.55874 2.683901 2.12132 2.12132 
C 2.683901 1.55874 3 0.795609 3 0 
C 3 -0.795609 2.683901 -1.55874 2.12132 -2.12132 
C 1.55874 -2.683901 0.795609 -3 0 -3 
C -0.795609 -3 -1.55874 -2.683901 -2.12132 -2.12132 
C -2.683901 -1.55874 -3 -0.795609 -3 0 
C -3 0.795609 -2.683901 1.55874 -2.12132 2.12132 
C -1.55874 2.683901 -0.795609 3 0 3 
z
" id="m360ce8a148" style="stroke:#999999;"/>
    </defs>
    <g clip-path="url(#p4b5de46c68)">
     <use style="fill:#999999;stroke:#999999;" x="140.002083" xlink:href="#m360ce8a148" y="111.706667"/>
     <use style="fill:#999999;stroke:#999999;" x="560.9125" xlink:href="#m360ce8a148" y="111.706667"/>
     <use style="fill:#999999;stroke:#999999;" x="981.822917" xlink:href="#m360ce8a148" y="120.52"/>
    </g>
   </g>
   <g id="PathCollection_18">
    <defs>
     <path d="M 0 3 
C 0.795609 3 1.55874 2.683901 2.12132 2.12132 
C 2.683901 1.55874 3 0.795609 3 0 
C 3 -0.795609 2.683901 -1.55874 2.12132 -2.12132 
C 1.55874 -2.683901 0.795609 -3 0 -3 
C -0.795609 -3 -1.55874 -2.683901 -2.12132 -2.12132 
C -2.683901 -1.55874 -3 -0.795609 -3 0 
C -3 0.795609 -2.683901 1.55874 -2.12132 2.12132 
C -1.55874 2.683901 -0.795609 3 0 3 
z
" id="m6a56812a1e" style="stroke:#a3a3a3;"/>
    </defs>
    <g clip-path="url(#p4b5de46c68)">
     <use style="fill:#a3a3a3;stroke:#a3a3a3;" x="140.002083" xlink:href="#m6a56812a1e" y="120.52"/>
     <use style="fill:#a3a3a3;stroke:#a3a3a3;" x="560.9125" xlink:href="#m6a56812a1e" y="120.52"/>
     <use style="fill:#a3a3a3;stroke:#a3a3a3;" x="981.822917" xlink:href="#m6a56812a1e" y="129.333333"/>
    </g>
   </g>
   <g id="PathCollection_19">
    <defs>
     <path d="M 0 3 
C 0.795609 3 1.55874 2.683901 2.12132 2.12132 
C 2.683901 1.55874 3 0.795609 3 0 
C 3 -0.795609 2.683901 -1.55874 2.12132 -2.12132 
C 1.55874 -2.683901 0.795609 -3 0 -3 
C -0.795609 -3 -1.55874 -2.683901 -2.12132 -2.12132 
C -2.683901 -1.55874 -3 -0.795609 -3 0 
C -3 0.795609 -2.683901 1.55874 -2.12132 2.12132 
C -1.55874 2.683901 -0.795609 3 0 3 
z
" id="m22d429157c" style="stroke:#acacac;"/>
    </defs>
    <g clip-path="url(#p4b5de46c68)">
     <use style="fill:#acacac;stroke:#acacac;" x="140.002083" xlink:href="#m22d429157c" y="138.146667"/>
     <use style="fill:#acacac;stroke:#acacac;" x="560.9125" xlink:href="#m22d429157c" y="111.706667"/>
     <use style="fill:#acacac;stroke:#acacac;" x="981.822917" xlink:href="#m22d429157c" y="111.706667"/>
    </g>
   </g>
   <g id="PathCollection_20">
    <defs>
     <path d="M 0 3 
C 0.795609 3 1.55874 2.683901 2.12132 2.12132 
C 2.683901 1.55874 3 0.795609 3 0 
C 3 -0.795609 2.683901 -1.55874 2.12132 -2.12132 
C 1.55874 -2.683901 0.795609 -3 0 -3 
C -0.795609 -3 -1.55874 -2.683901 -2.12132 -2.12132 
C -2.683901 -1.55874 -3 -0.795609 -3 0 
C -3 0.795609 -2.683901 1.55874 -2.12132 2.12132 
C -1.55874 2.683901 -0.795609 3 0 3 
z
" id="mff21693800" style="stroke:#b6b6b6;"/>
    </defs>
    <g clip-path="url(#p4b5de46c68)">
     <use style="fill:#b6b6b6;stroke:#b6b6b6;" x="140.002083" xlink:href="#mff21693800" y="146.96"/>
     <use style="fill:#b6b6b6;stroke:#b6b6b6;" x="560.9125" xlink:href="#mff21693800" y="102.893333"/>
     <use style="fill:#b6b6b6;stroke:#b6b6b6;" x="981.822917" xlink:href="#mff21693800" y="120.52"/>
    </g>
   </g>
   <g id="matplotlib.axis_1">
    <g id="xtick_1">
     <g id="line2d_1">
      <path clip-path="url(#p4b5de46c68)" d="M 55.82 279.16 
L 55.82 14.76 
" style="fill:none;stroke:#666666;stroke-linecap:square;stroke-opacity:0.3;stroke-width:0.4;"/>
     </g>
     <g id="line2d_2">
      <defs>
       <path d="M 0 0 
L 0 3.5 
" id="m99dcbfcf4c" style="stroke:#000000;stroke-width:0.8;"/>
      </defs>
      <g>
       <use style="stroke:#000000;stroke-width:0.8;" x="55.82" xlink:href="#m99dcbfcf4c" y="279.16"/>
      </g>
     </g>
     <g id="text_1">
      <!-- −6 -->
      <g transform="translate(48.448906 293.758438)scale(0.1 -0.1)">
       <defs>
        <path d="M 678 2272 
L 4684 2272 
L 4684 1741 
L 678 1741 
L 678 2272 
z
" id="DejaVuSans-2212" transform="scale(0.015625)"/>
        <path d="M 2113 2584 
Q 1688 2584 1439 2293 
Q 1191 2003 1191 1497 
Q 1191 994 1439 701 
Q 1688 409 2113 409 
Q 2538 409 2786 701 
Q 3034 994 3034 1497 
Q 3034 2003 2786 2293 
Q 2538 2584 2113 2584 
z
M 3366 4563 
L 3366 3988 
Q 3128 4100 2886 4159 
Q 2644 4219 2406 4219 
Q 1781 4219 1451 3797 
Q 1122 3375 1075 2522 
Q 1259 2794 1537 2939 
Q 1816 3084 2150 3084 
Q 2853 3084 3261 2657 
Q 3669 2231 3669 1497 
Q 3669 778 3244 343 
Q 2819 -91 2113 -91 
Q 1303 -91 875 529 
Q 447 1150 447 2328 
Q 447 3434 972 4092 
Q 1497 4750 2381 4750 
Q 2619 4750 2861 4703 
Q 3103 4656 3366 4563 
z
" id="DejaVuSans-36" transform="scale(0.015625)"/>
       </defs>
       <use xlink:href="#DejaVuSans-2212"/>
       <use x="83.789062" xlink:href="#DejaVuSans-36"/>
      </g>
     </g>
    </g>
    <g id="xtick_2">
     <g id="line2d_3">
      <path clip-path="url(#p4b5de46c68)" d="M 224.184167 279.16 
L 224.184167 14.76 
" style="fill:none;stroke:#666666;stroke-linecap:square;stroke-opacity:0.3;stroke-width:0.4;"/>
     </g>
     <g id="line2d_4">
      <g>
       <use style="stroke:#000000;stroke-width:0.8;" x="224.184167" xlink:href="#m99dcbfcf4c" y="279.16"/>
      </g>
     </g>
     <g id="text_2">
      <!-- −4 -->
      <g transform="translate(216.813073 293.758438)scale(0.1 -0.1)">
       <defs>
        <path d="M 2419 4116 
L 825 1625 
L 2419 1625 
L 2419 4116 
z
M 2253 4666 
L 3047 4666 
L 3047 1625 
L 3713 1625 
L 3713 1100 
L 3047 1100 
L 3047 0 
L 2419 0 
L 2419 1100 
L 313 1100 
L 313 1709 
L 2253 4666 
z
" id="DejaVuSans-34" transform="scale(0.015625)"/>
       </defs>
       <use xlink:href="#DejaVuSans-2212"/>
       <use x="83.789062" xlink:href="#DejaVuSans-34"/>
      </g>
     </g>
    </g>
    <g id="xtick_3">
     <g id="line2d_5">
      <path clip-path="url(#p4b5de46c68)" d="M 392.548333 279.16 
L 392.548333 14.76 
" style="fill:none;stroke:#666666;stroke-linecap:square;stroke-opacity:0.3;stroke-width:0.4;"/>
     </g>
     <g id="line2d_6">
      <g>
       <use style="stroke:#000000;stroke-width:0.8;" x="392.548333" xlink:href="#m99dcbfcf4c" y="279.16"/>
      </g>
     </g>
     <g id="text_3">
      <!-- −2 -->
      <g transform="translate(385.17724 293.758438)scale(0.1 -0.1)">
       <defs>
        <path d="M 1228 531 
L 3431 531 
L 3431 0 
L 469 0 
L 469 531 
Q 828 903 1448 1529 
Q 2069 2156 2228 2338 
Q 2531 2678 2651 2914 
Q 2772 3150 2772 3378 
Q 2772 3750 2511 3984 
Q 2250 4219 1831 4219 
Q 1534 4219 1204 4116 
Q 875 4013 500 3803 
L 500 4441 
Q 881 4594 1212 4672 
Q 1544 4750 1819 4750 
Q 2544 4750 2975 4387 
Q 3406 4025 3406 3419 
Q 3406 3131 3298 2873 
Q 3191 2616 2906 2266 
Q 2828 2175 2409 1742 
Q 1991 1309 1228 531 
z
" id="DejaVuSans-32" transform="scale(0.015625)"/>
       </defs>
       <use xlink:href="#DejaVuSans-2212"/>
       <use x="83.789062" xlink:href="#DejaVuSans-32"/>
      </g>
     </g>
    </g>
    <g id="xtick_4">
     <g id="line2d_7">
      <path clip-path="url(#p4b5de46c68)" d="M 560.9125 279.16 
L 560.9125 14.76 
" style="fill:none;stroke:#666666;stroke-linecap:square;stroke-opacity:0.3;stroke-width:0.4;"/>
     </g>
     <g id="line2d_8">
      <g>
       <use style="stroke:#000000;stroke-width:0.8;" x="560.9125" xlink:href="#m99dcbfcf4c" y="279.16"/>
      </g>
     </g>
     <g id="text_4">
      <!-- 0 -->
      <g transform="translate(557.73125 293.758438)scale(0.1 -0.1)">
       <defs>
        <path d="M 2034 4250 
Q 1547 4250 1301 3770 
Q 1056 3291 1056 2328 
Q 1056 1369 1301 889 
Q 1547 409 2034 409 
Q 2525 409 2770 889 
Q 3016 1369 3016 2328 
Q 3016 3291 2770 3770 
Q 2525 4250 2034 4250 
z
M 2034 4750 
Q 2819 4750 3233 4129 
Q 3647 3509 3647 2328 
Q 3647 1150 3233 529 
Q 2819 -91 2034 -91 
Q 1250 -91 836 529 
Q 422 1150 422 2328 
Q 422 3509 836 4129 
Q 1250 4750 2034 4750 
z
" id="DejaVuSans-30" transform="scale(0.015625)"/>
       </defs>
       <use xlink:href="#DejaVuSans-30"/>
      </g>
     </g>
    </g>
    <g id="xtick_5">
     <g id="line2d_9">
      <path clip-path="url(#p4b5de46c68)" d="M 729.276667 279.16 
L 729.276667 14.76 
" style="fill:none;stroke:#666666;stroke-linecap:square;stroke-opacity:0.3;stroke-width:0.4;"/>
     </g>
     <g id="line2d_10">
      <g>
       <use style="stroke:#000000;stroke-width:0.8;" x="729.276667" xlink:href="#m99dcbfcf4c" y="279.16"/>
      </g>
     </g>
     <g id="text_5">
      <!-- 2 -->
      <g transform="translate(726.095417 293.758438)scale(0.1 -0.1)">
       <use xlink:href="#DejaVuSans-32"/>
      </g>
     </g>
    </g>
    <g id="xtick_6">
     <g id="line2d_11">
      <path clip-path="url(#p4b5de46c68)" d="M 897.640833 279.16 
L 897.640833 14.76 
" style="fill:none;stroke:#666666;stroke-linecap:square;stroke-opacity:0.3;stroke-width:0.4;"/>
     </g>
     <g id="line2d_12">
      <g>
       <use style="stroke:#000000;stroke-width:0.8;" x="897.640833" xlink:href="#m99dcbfcf4c" y="279.16"/>
      </g>
     </g>
     <g id="text_6">
      <!-- 4 -->
      <g transform="translate(894.459583 293.758438)scale(0.1 -0.1)">
       <use xlink:href="#DejaVuSans-34"/>
      </g>
     </g>
    </g>
    <g id="xtick_7">
     <g id="line2d_13">
      <path clip-path="url(#p4b5de46c68)" d="M 1066.005 279.16 
L 1066.005 14.76 
" style="fill:none;stroke:#666666;stroke-linecap:square;stroke-opacity:0.3;stroke-width:0.4;"/>
     </g>
     <g id="line2d_14">
      <g>
       <use style="stroke:#000000;stroke-width:0.8;" x="1066.005" xlink:href="#m99dcbfcf4c" y="279.16"/>
      </g>
     </g>
     <g id="text_7">
      <!-- 6 -->
      <g transform="translate(1062.82375 293.758438)scale(0.1 -0.1)">
       <use xlink:href="#DejaVuSans-36"/>
      </g>
     </g>
    </g>
    <g id="xtick_8">
     <g id="line2d_15">
      <path clip-path="url(#p4b5de46c68)" d="M 97.911042 279.16 
L 97.911042 14.76 
" style="fill:none;stroke:#999999;stroke-linecap:square;stroke-opacity:0.3;stroke-width:0.25;"/>
     </g>
     <g id="line2d_16">
      <defs>
       <path d="M 0 0 
L 0 2 
" id="m0c392618d4" style="stroke:#000000;stroke-width:0.6;"/>
      </defs>
      <g>
       <use style="stroke:#000000;stroke-width:0.6;" x="97.911042" xlink:href="#m0c392618d4" y="279.16"/>
      </g>
     </g>
    </g>
    <g id="xtick_9">
     <g id="line2d_17">
      <path clip-path="url(#p4b5de46c68)" d="M 140.002083 279.16 
L 140.002083 14.76 
" style="fill:none;stroke:#999999;stroke-linecap:square;stroke-opacity:0.3;stroke-width:0.25;"/>
     </g>
     <g id="line2d_18">
      <g>
       <use style="stroke:#000000;stroke-width:0.6;" x="140.002083" xlink:href="#m0c392618d4" y="279.16"/>
      </g>
     </g>
    </g>
    <g id="xtick_10">
     <g id="line2d_19">
      <path clip-path="url(#p4b5de46c68)" d="M 182.093125 279.16 
L 182.093125 14.76 
" style="fill:none;stroke:#999999;stroke-linecap:square;stroke-opacity:0.3;stroke-width:0.25;"/>
     </g>
     <g id="line2d_20">
      <g>
       <use style="stroke:#000000;stroke-width:0.6;" x="182.093125" xlink:href="#m0c392618d4" y="279.16"/>
      </g>
     </g>
    </g>
    <g id="xtick_11">
     <g id="line2d_21">
      <path clip-path="url(#p4b5de46c68)" d="M 266.275208 279.16 
L 266.275208 14.76 
" style="fill:none;stroke:#999999;stroke-linecap:square;stroke-opacity:0.3;stroke-width:0.25;"/>
     </g>
     <g id="line2d_22">
      <g>
       <use style="stroke:#000000;stroke-width:0.6;" x="266.275208" xlink:href="#m0c392618d4" y="279.16"/>
      </g>
     </g>
    </g>
    <g id="xtick_12">
     <g id="line2d_23">
      <path clip-path="url(#p4b5de46c68)" d="M 308.36625 279.16 
L 308.36625 14.76 
" style="fill:none;stroke:#999999;stroke-linecap:square;stroke-opacity:0.3;stroke-width:0.25;"/>
     </g>
     <g id="line2d_24">
      <g>
       <use style="stroke:#000000;stroke-width:0.6;" x="308.36625" xlink:href="#m0c392618d4" y="279.16"/>
      </g>
     </g>
    </g>
    <g id="xtick_13">
     <g id="line2d_25">
      <path clip-path="url(#p4b5de46c68)" d="M 350.457292 279.16 
L 350.457292 14.76 
" style="fill:none;stroke:#999999;stroke-linecap:square;stroke-opacity:0.3;stroke-width:0.25;"/>
     </g>
     <g id="line2d_26">
      <g>
       <use style="stroke:#000000;stroke-width:0.6;" x="350.457292" xlink:href="#m0c392618d4" y="279.16"/>
      </g>
     </g>
    </g>
    <g id="xtick_14">
     <g id="line2d_27">
      <path clip-path="url(#p4b5de46c68)" d="M 434.639375 279.16 
L 434.639375 14.76 
" style="fill:none;stroke:#999999;stroke-linecap:square;stroke-opacity:0.3;stroke-width:0.25;"/>
     </g>
     <g id="line2d_28">
      <g>
       <use style="stroke:#000000;stroke-width:0.6;" x="434.639375" xlink:href="#m0c392618d4" y="279.16"/>
      </g>
     </g>
    </g>
    <g id="xtick_15">
     <g id="line2d_29">
      <path clip-path="url(#p4b5de46c68)" d="M 476.730417 279.16 
L 476.730417 14.76 
" style="fill:none;stroke:#999999;stroke-linecap:square;stroke-opacity:0.3;stroke-width:0.25;"/>
     </g>
     <g id="line2d_30">
      <g>
       <use style="stroke:#000000;stroke-width:0.6;" x="476.730417" xlink:href="#m0c392618d4" y="279.16"/>
      </g>
     </g>
    </g>
    <g id="xtick_16">
     <g id="line2d_31">
      <path clip-path="url(#p4b5de46c68)" d="M 518.821458 279.16 
L 518.821458 14.76 
" style="fill:none;stroke:#999999;stroke-linecap:square;stroke-opacity:0.3;stroke-width:0.25;"/>
     </g>
     <g id="line2d_32">
      <g>
       <use style="stroke:#000000;stroke-width:0.6;" x="518.821458" xlink:href="#m0c392618d4" y="279.16"/>
      </g>
     </g>
    </g>
    <g id="xtick_17">
     <g id="line2d_33">
      <path clip-path="url(#p4b5de46c68)" d="M 603.003542 279.16 
L 603.003542 14.76 
" style="fill:none;stroke:#999999;stroke-linecap:square;stroke-opacity:0.3;stroke-width:0.25;"/>
     </g>
     <g id="line2d_34">
      <g>
       <use style="stroke:#000000;stroke-width:0.6;" x="603.003542" xlink:href="#m0c392618d4" y="279.16"/>
      </g>
     </g>
    </g>
    <g id="xtick_18">
     <g id="line2d_35">
      <path clip-path="url(#p4b5de46c68)" d="M 645.094583 279.16 
L 645.094583 14.76 
" style="fill:none;stroke:#999999;stroke-linecap:square;stroke-opacity:0.3;stroke-width:0.25;"/>
     </g>
     <g id="line2d_36">
      <g>
       <use style="stroke:#000000;stroke-width:0.6;" x="645.094583" xlink:href="#m0c392618d4" y="279.16"/>
      </g>
     </g>
    </g>
    <g id="xtick_19">
     <g id="line2d_37">
      <path clip-path="url(#p4b5de46c68)" d="M 687.185625 279.16 
L 687.185625 14.76 
" style="fill:none;stroke:#999999;stroke-linecap:square;stroke-opacity:0.3;stroke-width:0.25;"/>
     </g>
     <g id="line2d_38">
      <g>
       <use style="stroke:#000000;stroke-width:0.6;" x="687.185625" xlink:href="#m0c392618d4" y="279.16"/>
      </g>
     </g>
    </g>
    <g id="xtick_20">
     <g id="line2d_39">
      <path clip-path="url(#p4b5de46c68)" d="M 771.367708 279.16 
L 771.367708 14.76 
" style="fill:none;stroke:#999999;stroke-linecap:square;stroke-opacity:0.3;stroke-width:0.25;"/>
     </g>
     <g id="line2d_40">
      <g>
       <use style="stroke:#000000;stroke-width:0.6;" x="771.367708" xlink:href="#m0c392618d4" y="279.16"/>
      </g>
     </g>
    </g>
    <g id="xtick_21">
     <g id="line2d_41">
      <path clip-path="url(#p4b5de46c68)" d="M 813.45875 279.16 
L 813.45875 14.76 
" style="fill:none;stroke:#999999;stroke-linecap:square;stroke-opacity:0.3;stroke-width:0.25;"/>
     </g>
     <g id="line2d_42">
      <g>
       <use style="stroke:#000000;stroke-width:0.6;" x="813.45875" xlink:href="#m0c392618d4" y="279.16"/>
      </g>
     </g>
    </g>
    <g id="xtick_22">
     <g id="line2d_43">
      <path clip-path="url(#p4b5de46c68)" d="M 855.549792 279.16 
L 855.549792 14.76 
" style="fill:none;stroke:#999999;stroke-linecap:square;stroke-opacity:0.3;stroke-width:0.25;"/>
     </g>
     <g id="line2d_44">
      <g>
       <use style="stroke:#000000;stroke-width:0.6;" x="855.549792" xlink:href="#m0c392618d4" y="279.16"/>
      </g>
     </g>
    </g>
    <g id="xtick_23">
     <g id="line2d_45">
      <path clip-path="url(#p4b5de46c68)" d="M 939.731875 279.16 
L 939.731875 14.76 
" style="fill:none;stroke:#999999;stroke-linecap:square;stroke-opacity:0.3;stroke-width:0.25;"/>
     </g>
     <g id="line2d_46">
      <g>
       <use style="stroke:#000000;stroke-width:0.6;" x="939.731875" xlink:href="#m0c392618d4" y="279.16"/>
      </g>
     </g>
    </g>
    <g id="xtick_24">
     <g id="line2d_47">
      <path clip-path="url(#p4b5de46c68)" d="M 981.822917 279.16 
L 981.822917 14.76 
" style="fill:none;stroke:#999999;stroke-linecap:square;stroke-opacity:0.3;stroke-width:0.25;"/>
     </g>
     <g id="line2d_48">
      <g>
       <use style="stroke:#000000;stroke-width:0.6;" x="981.822917" xlink:href="#m0c392618d4" y="279.16"/>
      </g>
     </g>
    </g>
    <g id="xtick_25">
     <g id="line2d_49">
      <path clip-path="url(#p4b5de46c68)" d="M 1023.913958 279.16 
L 1023.913958 14.76 
" style="fill:none;stroke:#999999;stroke-linecap:square;stroke-opacity:0.3;stroke-width:0.25;"/>
     </g>
     <g id="line2d_50">
      <g>
       <use style="stroke:#000000;stroke-width:0.6;" x="1023.913958" xlink:href="#m0c392618d4" y="279.16"/>
      </g>
     </g>
    </g>
    <g id="text_8">
     <!-- Posición (m) -->
     <g transform="translate(524.175625 308.95625)scale(0.12 -0.12)">
      <defs>
       <path d="M 1259 4147 
L 1259 2394 
L 2053 2394 
Q 2494 2394 2734 2622 
Q 2975 2850 2975 3272 
Q 2975 3691 2734 3919 
Q 2494 4147 2053 4147 
L 1259 4147 
z
M 628 4666 
L 2053 4666 
Q 2838 4666 3239 4311 
Q 3641 3956 3641 3272 
Q 3641 2581 3239 2228 
Q 2838 1875 2053 1875 
L 1259 1875 
L 1259 0 
L 628 0 
L 628 4666 
z
" id="DejaVuSans-50" transform="scale(0.015625)"/>
       <path d="M 1959 3097 
Q 1497 3097 1228 2736 
Q 959 2375 959 1747 
Q 959 1119 1226 758 
Q 1494 397 1959 397 
Q 2419 397 2687 759 
Q 2956 1122 2956 1747 
Q 2956 2369 2687 2733 
Q 2419 3097 1959 3097 
z
M 1959 3584 
Q 2709 3584 3137 3096 
Q 3566 2609 3566 1747 
Q 3566 888 3137 398 
Q 2709 -91 1959 -91 
Q 1206 -91 779 398 
Q 353 888 353 1747 
Q 353 2609 779 3096 
Q 1206 3584 1959 3584 
z
" id="DejaVuSans-6f" transform="scale(0.015625)"/>
       <path d="M 2834 3397 
L 2834 2853 
Q 2591 2978 2328 3040 
Q 2066 3103 1784 3103 
Q 1356 3103 1142 2972 
Q 928 2841 928 2578 
Q 928 2378 1081 2264 
Q 1234 2150 1697 2047 
L 1894 2003 
Q 2506 1872 2764 1633 
Q 3022 1394 3022 966 
Q 3022 478 2636 193 
Q 2250 -91 1575 -91 
Q 1294 -91 989 -36 
Q 684 19 347 128 
L 347 722 
Q 666 556 975 473 
Q 1284 391 1588 391 
Q 1994 391 2212 530 
Q 2431 669 2431 922 
Q 2431 1156 2273 1281 
Q 2116 1406 1581 1522 
L 1381 1569 
Q 847 1681 609 1914 
Q 372 2147 372 2553 
Q 372 3047 722 3315 
Q 1072 3584 1716 3584 
Q 2034 3584 2315 3537 
Q 2597 3491 2834 3397 
z
" id="DejaVuSans-73" transform="scale(0.015625)"/>
       <path d="M 603 3500 
L 1178 3500 
L 1178 0 
L 603 0 
L 603 3500 
z
M 603 4863 
L 1178 4863 
L 1178 4134 
L 603 4134 
L 603 4863 
z
" id="DejaVuSans-69" transform="scale(0.015625)"/>
       <path d="M 3122 3366 
L 3122 2828 
Q 2878 2963 2633 3030 
Q 2388 3097 2138 3097 
Q 1578 3097 1268 2742 
Q 959 2388 959 1747 
Q 959 1106 1268 751 
Q 1578 397 2138 397 
Q 2388 397 2633 464 
Q 2878 531 3122 666 
L 3122 134 
Q 2881 22 2623 -34 
Q 2366 -91 2075 -91 
Q 1284 -91 818 406 
Q 353 903 353 1747 
Q 353 2603 823 3093 
Q 1294 3584 2113 3584 
Q 2378 3584 2631 3529 
Q 2884 3475 3122 3366 
z
" id="DejaVuSans-63" transform="scale(0.015625)"/>
       <path d="M 1959 3097 
Q 1497 3097 1228 2736 
Q 959 2375 959 1747 
Q 959 1119 1226 758 
Q 1494 397 1959 397 
Q 2419 397 2687 759 
Q 2956 1122 2956 1747 
Q 2956 2369 2687 2733 
Q 2419 3097 1959 3097 
z
M 1959 3584 
Q 2709 3584 3137 3096 
Q 3566 2609 3566 1747 
Q 3566 888 3137 398 
Q 2709 -91 1959 -91 
Q 1206 -91 779 398 
Q 353 888 353 1747 
Q 353 2609 779 3096 
Q 1206 3584 1959 3584 
z
M 2394 5119 
L 3016 5119 
L 1998 3944 
L 1519 3944 
L 2394 5119 
z
" id="DejaVuSans-f3" transform="scale(0.015625)"/>
       <path d="M 3513 2113 
L 3513 0 
L 2938 0 
L 2938 2094 
Q 2938 2591 2744 2837 
Q 2550 3084 2163 3084 
Q 1697 3084 1428 2787 
Q 1159 2491 1159 1978 
L 1159 0 
L 581 0 
L 581 3500 
L 1159 3500 
L 1159 2956 
Q 1366 3272 1645 3428 
Q 1925 3584 2291 3584 
Q 2894 3584 3203 3211 
Q 3513 2838 3513 2113 
z
" id="DejaVuSans-6e" transform="scale(0.015625)"/>
       <path id="DejaVuSans-20" transform="scale(0.015625)"/>
       <path d="M 1984 4856 
Q 1566 4138 1362 3434 
Q 1159 2731 1159 2009 
Q 1159 1288 1364 580 
Q 1569 -128 1984 -844 
L 1484 -844 
Q 1016 -109 783 600 
Q 550 1309 550 2009 
Q 550 2706 781 3412 
Q 1013 4119 1484 4856 
L 1984 4856 
z
" id="DejaVuSans-28" transform="scale(0.015625)"/>
       <path d="M 3328 2828 
Q 3544 3216 3844 3400 
Q 4144 3584 4550 3584 
Q 5097 3584 5394 3201 
Q 5691 2819 5691 2113 
L 5691 0 
L 5113 0 
L 5113 2094 
Q 5113 2597 4934 2840 
Q 4756 3084 4391 3084 
Q 3944 3084 3684 2787 
Q 3425 2491 3425 1978 
L 3425 0 
L 2847 0 
L 2847 2094 
Q 2847 2600 2669 2842 
Q 2491 3084 2119 3084 
Q 1678 3084 1418 2786 
Q 1159 2488 1159 1978 
L 1159 0 
L 581 0 
L 581 3500 
L 1159 3500 
L 1159 2956 
Q 1356 3278 1631 3431 
Q 1906 3584 2284 3584 
Q 2666 3584 2933 3390 
Q 3200 3197 3328 2828 
z
" id="DejaVuSans-6d" transform="scale(0.015625)"/>
       <path d="M 513 4856 
L 1013 4856 
Q 1481 4119 1714 3412 
Q 1947 2706 1947 2009 
Q 1947 1309 1714 600 
Q 1481 -109 1013 -844 
L 513 -844 
Q 928 -128 1133 580 
Q 1338 1288 1338 2009 
Q 1338 2731 1133 3434 
Q 928 4138 513 4856 
z
" id="DejaVuSans-29" transform="scale(0.015625)"/>
      </defs>
      <use xlink:href="#DejaVuSans-50"/>
      <use x="56.677734" xlink:href="#DejaVuSans-6f"/>
      <use x="117.859375" xlink:href="#DejaVuSans-73"/>
      <use x="169.958984" xlink:href="#DejaVuSans-69"/>
      <use x="197.742188" xlink:href="#DejaVuSans-63"/>
      <use x="252.722656" xlink:href="#DejaVuSans-69"/>
      <use x="280.505859" xlink:href="#DejaVuSans-f3"/>
      <use x="341.6875" xlink:href="#DejaVuSans-6e"/>
      <use x="405.066406" xlink:href="#DejaVuSans-20"/>
      <use x="436.853516" xlink:href="#DejaVuSans-28"/>
      <use x="475.867188" xlink:href="#DejaVuSans-6d"/>
      <use x="573.279297" xlink:href="#DejaVuSans-29"/>
     </g>
    </g>
   </g>
   <g id="matplotlib.axis_2">
    <g id="ytick_1">
     <g id="line2d_51">
      <path clip-path="url(#p4b5de46c68)" d="M 55.82 279.16 
L 1066.005 279.16 
" style="fill:none;stroke:#666666;stroke-linecap:square;stroke-opacity:0.3;stroke-width:0.4;"/>
     </g>
     <g id="line2d_52">
      <defs>
       <path d="M 0 0 
L -3.5 0 
" id="md7494a49be" style="stroke:#000000;stroke-width:0.8;"/>
      </defs>
      <g>
       <use style="stroke:#000000;stroke-width:0.8;" x="55.82" xlink:href="#md7494a49be" y="279.16"/>
      </g>
     </g>
     <g id="text_9">
      <!-- −25 -->
      <g transform="translate(27.715312 282.959219)scale(0.1 -0.1)">
       <defs>
        <path d="M 691 4666 
L 3169 4666 
L 3169 4134 
L 1269 4134 
L 1269 2991 
Q 1406 3038 1543 3061 
Q 1681 3084 1819 3084 
Q 2600 3084 3056 2656 
Q 3513 2228 3513 1497 
Q 3513 744 3044 326 
Q 2575 -91 1722 -91 
Q 1428 -91 1123 -41 
Q 819 9 494 109 
L 494 744 
Q 775 591 1075 516 
Q 1375 441 1709 441 
Q 2250 441 2565 725 
Q 2881 1009 2881 1497 
Q 2881 1984 2565 2268 
Q 2250 2553 1709 2553 
Q 1456 2553 1204 2497 
Q 953 2441 691 2322 
L 691 4666 
z
" id="DejaVuSans-35" transform="scale(0.015625)"/>
       </defs>
       <use xlink:href="#DejaVuSans-2212"/>
       <use x="83.789062" xlink:href="#DejaVuSans-32"/>
       <use x="147.412109" xlink:href="#DejaVuSans-35"/>
      </g>
     </g>
    </g>
    <g id="ytick_2">
     <g id="line2d_53">
      <path clip-path="url(#p4b5de46c68)" d="M 55.82 235.093333 
L 1066.005 235.093333 
" style="fill:none;stroke:#666666;stroke-linecap:square;stroke-opacity:0.3;stroke-width:0.4;"/>
     </g>
     <g id="line2d_54">
      <g>
       <use style="stroke:#000000;stroke-width:0.8;" x="55.82" xlink:href="#md7494a49be" y="235.093333"/>
      </g>
     </g>
     <g id="text_10">
      <!-- −20 -->
      <g transform="translate(27.715312 238.892552)scale(0.1 -0.1)">
       <use xlink:href="#DejaVuSans-2212"/>
       <use x="83.789062" xlink:href="#DejaVuSans-32"/>
       <use x="147.412109" xlink:href="#DejaVuSans-30"/>
      </g>
     </g>
    </g>
    <g id="ytick_3">
     <g id="line2d_55">
      <path clip-path="url(#p4b5de46c68)" d="M 55.82 191.026667 
L 1066.005 191.026667 
" style="fill:none;stroke:#666666;stroke-linecap:square;stroke-opacity:0.3;stroke-width:0.4;"/>
     </g>
     <g id="line2d_56">
      <g>
       <use style="stroke:#000000;stroke-width:0.8;" x="55.82" xlink:href="#md7494a49be" y="191.026667"/>
      </g>
     </g>
     <g id="text_11">
      <!-- −15 -->
      <g transform="translate(27.715312 194.825885)scale(0.1 -0.1)">
       <defs>
        <path d="M 794 531 
L 1825 531 
L 1825 4091 
L 703 3866 
L 703 4441 
L 1819 4666 
L 2450 4666 
L 2450 531 
L 3481 531 
L 3481 0 
L 794 0 
L 794 531 
z
" id="DejaVuSans-31" transform="scale(0.015625)"/>
       </defs>
       <use xlink:href="#DejaVuSans-2212"/>
       <use x="83.789062" xlink:href="#DejaVuSans-31"/>
       <use x="147.412109" xlink:href="#DejaVuSans-35"/>
      </g>
     </g>
    </g>
    <g id="ytick_4">
     <g id="line2d_57">
      <path clip-path="url(#p4b5de46c68)" d="M 55.82 146.96 
L 1066.005 146.96 
" style="fill:none;stroke:#666666;stroke-linecap:square;stroke-opacity:0.3;stroke-width:0.4;"/>
     </g>
     <g id="line2d_58">
      <g>
       <use style="stroke:#000000;stroke-width:0.8;" x="55.82" xlink:href="#md7494a49be" y="146.96"/>
      </g>
     </g>
     <g id="text_12">
      <!-- −10 -->
      <g transform="translate(27.715312 150.759219)scale(0.1 -0.1)">
       <use xlink:href="#DejaVuSans-2212"/>
       <use x="83.789062" xlink:href="#DejaVuSans-31"/>
       <use x="147.412109" xlink:href="#DejaVuSans-30"/>
      </g>
     </g>
    </g>
    <g id="ytick_5">
     <g id="line2d_59">
      <path clip-path="url(#p4b5de46c68)" d="M 55.82 102.893333 
L 1066.005 102.893333 
" style="fill:none;stroke:#666666;stroke-linecap:square;stroke-opacity:0.3;stroke-width:0.4;"/>
     </g>
     <g id="line2d_60">
      <g>
       <use style="stroke:#000000;stroke-width:0.8;" x="55.82" xlink:href="#md7494a49be" y="102.893333"/>
      </g>
     </g>
     <g id="text_13">
      <!-- −5 -->
      <g transform="translate(34.077813 106.692552)scale(0.1 -0.1)">
       <use xlink:href="#DejaVuSans-2212"/>
       <use x="83.789062" xlink:href="#DejaVuSans-35"/>
      </g>
     </g>
    </g>
    <g id="ytick_6">
     <g id="line2d_61">
      <path clip-path="url(#p4b5de46c68)" d="M 55.82 58.826667 
L 1066.005 58.826667 
" style="fill:none;stroke:#666666;stroke-linecap:square;stroke-opacity:0.3;stroke-width:0.4;"/>
     </g>
     <g id="line2d_62">
      <g>
       <use style="stroke:#000000;stroke-width:0.8;" x="55.82" xlink:href="#md7494a49be" y="58.826667"/>
      </g>
     </g>
     <g id="text_14">
      <!-- 0 -->
      <g transform="translate(42.4575 62.625885)scale(0.1 -0.1)">
       <use xlink:href="#DejaVuSans-30"/>
      </g>
     </g>
    </g>
    <g id="ytick_7">
     <g id="line2d_63">
      <path clip-path="url(#p4b5de46c68)" d="M 55.82 14.76 
L 1066.005 14.76 
" style="fill:none;stroke:#666666;stroke-linecap:square;stroke-opacity:0.3;stroke-width:0.4;"/>
     </g>
     <g id="line2d_64">
      <g>
       <use style="stroke:#000000;stroke-width:0.8;" x="55.82" xlink:href="#md7494a49be" y="14.76"/>
      </g>
     </g>
     <g id="text_15">
      <!-- 5 -->
      <g transform="translate(42.4575 18.559219)scale(0.1 -0.1)">
       <use xlink:href="#DejaVuSans-35"/>
      </g>
     </g>
    </g>
    <g id="ytick_8">
     <g id="line2d_65">
      <path clip-path="url(#p4b5de46c68)" d="M 55.82 270.346667 
L 1066.005 270.346667 
" style="fill:none;stroke:#999999;stroke-linecap:square;stroke-opacity:0.3;stroke-width:0.25;"/>
     </g>
     <g id="line2d_66">
      <defs>
       <path d="M 0 0 
L -2 0 
" id="m66fa62fae4" style="stroke:#000000;stroke-width:0.6;"/>
      </defs>
      <g>
       <use style="stroke:#000000;stroke-width:0.6;" x="55.82" xlink:href="#m66fa62fae4" y="270.346667"/>
      </g>
     </g>
    </g>
    <g id="ytick_9">
     <g id="line2d_67">
      <path clip-path="url(#p4b5de46c68)" d="M 55.82 261.533333 
L 1066.005 261.533333 
" style="fill:none;stroke:#999999;stroke-linecap:square;stroke-opacity:0.3;stroke-width:0.25;"/>
     </g>
     <g id="line2d_68">
      <g>
       <use style="stroke:#000000;stroke-width:0.6;" x="55.82" xlink:href="#m66fa62fae4" y="261.533333"/>
      </g>
     </g>
    </g>
    <g id="ytick_10">
     <g id="line2d_69">
      <path clip-path="url(#p4b5de46c68)" d="M 55.82 252.72 
L 1066.005 252.72 
" style="fill:none;stroke:#999999;stroke-linecap:square;stroke-opacity:0.3;stroke-width:0.25;"/>
     </g>
     <g id="line2d_70">
      <g>
       <use style="stroke:#000000;stroke-width:0.6;" x="55.82" xlink:href="#m66fa62fae4" y="252.72"/>
      </g>
     </g>
    </g>
    <g id="ytick_11">
     <g id="line2d_71">
      <path clip-path="url(#p4b5de46c68)" d="M 55.82 243.906667 
L 1066.005 243.906667 
" style="fill:none;stroke:#999999;stroke-linecap:square;stroke-opacity:0.3;stroke-width:0.25;"/>
     </g>
     <g id="line2d_72">
      <g>
       <use style="stroke:#000000;stroke-width:0.6;" x="55.82" xlink:href="#m66fa62fae4" y="243.906667"/>
      </g>
     </g>
    </g>
    <g id="ytick_12">
     <g id="line2d_73">
      <path clip-path="url(#p4b5de46c68)" d="M 55.82 226.28 
L 1066.005 226.28 
" style="fill:none;stroke:#999999;stroke-linecap:square;stroke-opacity:0.3;stroke-width:0.25;"/>
     </g>
     <g id="line2d_74">
      <g>
       <use style="stroke:#000000;stroke-width:0.6;" x="55.82" xlink:href="#m66fa62fae4" y="226.28"/>
      </g>
     </g>
    </g>
    <g id="ytick_13">
     <g id="line2d_75">
      <path clip-path="url(#p4b5de46c68)" d="M 55.82 217.466667 
L 1066.005 217.466667 
" style="fill:none;stroke:#999999;stroke-linecap:square;stroke-opacity:0.3;stroke-width:0.25;"/>
     </g>
     <g id="line2d_76">
      <g>
       <use style="stroke:#000000;stroke-width:0.6;" x="55.82" xlink:href="#m66fa62fae4" y="217.466667"/>
      </g>
     </g>
    </g>
    <g id="ytick_14">
     <g id="line2d_77">
      <path clip-path="url(#p4b5de46c68)" d="M 55.82 208.653333 
L 1066.005 208.653333 
" style="fill:none;stroke:#999999;stroke-linecap:square;stroke-opacity:0.3;stroke-width:0.25;"/>
     </g>
     <g id="line2d_78">
      <g>
       <use style="stroke:#000000;stroke-width:0.6;" x="55.82" xlink:href="#m66fa62fae4" y="208.653333"/>
      </g>
     </g>
    </g>
    <g id="ytick_15">
     <g id="line2d_79">
      <path clip-path="url(#p4b5de46c68)" d="M 55.82 199.84 
L 1066.005 199.84 
" style="fill:none;stroke:#999999;stroke-linecap:square;stroke-opacity:0.3;stroke-width:0.25;"/>
     </g>
     <g id="line2d_80">
      <g>
       <use style="stroke:#000000;stroke-width:0.6;" x="55.82" xlink:href="#m66fa62fae4" y="199.84"/>
      </g>
     </g>
    </g>
    <g id="ytick_16">
     <g id="line2d_81">
      <path clip-path="url(#p4b5de46c68)" d="M 55.82 182.213333 
L 1066.005 182.213333 
" style="fill:none;stroke:#999999;stroke-linecap:square;stroke-opacity:0.3;stroke-width:0.25;"/>
     </g>
     <g id="line2d_82">
      <g>
       <use style="stroke:#000000;stroke-width:0.6;" x="55.82" xlink:href="#m66fa62fae4" y="182.213333"/>
      </g>
     </g>
    </g>
    <g id="ytick_17">
     <g id="line2d_83">
      <path clip-path="url(#p4b5de46c68)" d="M 55.82 173.4 
L 1066.005 173.4 
" style="fill:none;stroke:#999999;stroke-linecap:square;stroke-opacity:0.3;stroke-width:0.25;"/>
     </g>
     <g id="line2d_84">
      <g>
       <use style="stroke:#000000;stroke-width:0.6;" x="55.82" xlink:href="#m66fa62fae4" y="173.4"/>
      </g>
     </g>
    </g>
    <g id="ytick_18">
     <g id="line2d_85">
      <path clip-path="url(#p4b5de46c68)" d="M 55.82 164.586667 
L 1066.005 164.586667 
" style="fill:none;stroke:#999999;stroke-linecap:square;stroke-opacity:0.3;stroke-width:0.25;"/>
     </g>
     <g id="line2d_86">
      <g>
       <use style="stroke:#000000;stroke-width:0.6;" x="55.82" xlink:href="#m66fa62fae4" y="164.586667"/>
      </g>
     </g>
    </g>
    <g id="ytick_19">
     <g id="line2d_87">
      <path clip-path="url(#p4b5de46c68)" d="M 55.82 155.773333 
L 1066.005 155.773333 
" style="fill:none;stroke:#999999;stroke-linecap:square;stroke-opacity:0.3;stroke-width:0.25;"/>
     </g>
     <g id="line2d_88">
      <g>
       <use style="stroke:#000000;stroke-width:0.6;" x="55.82" xlink:href="#m66fa62fae4" y="155.773333"/>
      </g>
     </g>
    </g>
    <g id="ytick_20">
     <g id="line2d_89">
      <path clip-path="url(#p4b5de46c68)" d="M 55.82 138.146667 
L 1066.005 138.146667 
" style="fill:none;stroke:#999999;stroke-linecap:square;stroke-opacity:0.3;stroke-width:0.25;"/>
     </g>
     <g id="line2d_90">
      <g>
       <use style="stroke:#000000;stroke-width:0.6;" x="55.82" xlink:href="#m66fa62fae4" y="138.146667"/>
      </g>
     </g>
    </g>
    <g id="ytick_21">
     <g id="line2d_91">
      <path clip-path="url(#p4b5de46c68)" d="M 55.82 129.333333 
L 1066.005 129.333333 
" style="fill:none;stroke:#999999;stroke-linecap:square;stroke-opacity:0.3;stroke-width:0.25;"/>
     </g>
     <g id="line2d_92">
      <g>
       <use style="stroke:#000000;stroke-width:0.6;" x="55.82" xlink:href="#m66fa62fae4" y="129.333333"/>
      </g>
     </g>
    </g>
    <g id="ytick_22">
     <g id="line2d_93">
      <path clip-path="url(#p4b5de46c68)" d="M 55.82 120.52 
L 1066.005 120.52 
" style="fill:none;stroke:#999999;stroke-linecap:square;stroke-opacity:0.3;stroke-width:0.25;"/>
     </g>
     <g id="line2d_94">
      <g>
       <use style="stroke:#000000;stroke-width:0.6;" x="55.82" xlink:href="#m66fa62fae4" y="120.52"/>
      </g>
     </g>
    </g>
    <g id="ytick_23">
     <g id="line2d_95">
      <path clip-path="url(#p4b5de46c68)" d="M 55.82 111.706667 
L 1066.005 111.706667 
" style="fill:none;stroke:#999999;stroke-linecap:square;stroke-opacity:0.3;stroke-width:0.25;"/>
     </g>
     <g id="line2d_96">
      <g>
       <use style="stroke:#000000;stroke-width:0.6;" x="55.82" xlink:href="#m66fa62fae4" y="111.706667"/>
      </g>
     </g>
    </g>
    <g id="ytick_24">
     <g id="line2d_97">
      <path clip-path="url(#p4b5de46c68)" d="M 55.82 94.08 
L 1066.005 94.08 
" style="fill:none;stroke:#999999;stroke-linecap:square;stroke-opacity:0.3;stroke-width:0.25;"/>
     </g>
     <g id="line2d_98">
      <g>
       <use style="stroke:#000000;stroke-width:0.6;" x="55.82" xlink:href="#m66fa62fae4" y="94.08"/>
      </g>
     </g>
    </g>
    <g id="ytick_25">
     <g id="line2d_99">
      <path clip-path="url(#p4b5de46c68)" d="M 55.82 85.266667 
L 1066.005 85.266667 
" style="fill:none;stroke:#999999;stroke-linecap:square;stroke-opacity:0.3;stroke-width:0.25;"/>
     </g>
     <g id="line2d_100">
      <g>
       <use style="stroke:#000000;stroke-width:0.6;" x="55.82" xlink:href="#m66fa62fae4" y="85.266667"/>
      </g>
     </g>
    </g>
    <g id="ytick_26">
     <g id="line2d_101">
      <path clip-path="url(#p4b5de46c68)" d="M 55.82 76.453333 
L 1066.005 76.453333 
" style="fill:none;stroke:#999999;stroke-linecap:square;stroke-opacity:0.3;stroke-width:0.25;"/>
     </g>
     <g id="line2d_102">
      <g>
       <use style="stroke:#000000;stroke-width:0.6;" x="55.82" xlink:href="#m66fa62fae4" y="76.453333"/>
      </g>
     </g>
    </g>
    <g id="ytick_27">
     <g id="line2d_103">
      <path clip-path="url(#p4b5de46c68)" d="M 55.82 67.64 
L 1066.005 67.64 
" style="fill:none;stroke:#999999;stroke-linecap:square;stroke-opacity:0.3;stroke-width:0.25;"/>
     </g>
     <g id="line2d_104">
      <g>
       <use style="stroke:#000000;stroke-width:0.6;" x="55.82" xlink:href="#m66fa62fae4" y="67.64"/>
      </g>
     </g>
    </g>
    <g id="ytick_28">
     <g id="line2d_105">
      <path clip-path="url(#p4b5de46c68)" d="M 55.82 50.013333 
L 1066.005 50.013333 
" style="fill:none;stroke:#999999;stroke-linecap:square;stroke-opacity:0.3;stroke-width:0.25;"/>
     </g>
     <g id="line2d_106">
      <g>
       <use style="stroke:#000000;stroke-width:0.6;" x="55.82" xlink:href="#m66fa62fae4" y="50.013333"/>
      </g>
     </g>
    </g>
    <g id="ytick_29">
     <g id="line2d_107">
      <path clip-path="url(#p4b5de46c68)" d="M 55.82 41.2 
L 1066.005 41.2 
" style="fill:none;stroke:#999999;stroke-linecap:square;stroke-opacity:0.3;stroke-width:0.25;"/>
     </g>
     <g id="line2d_108">
      <g>
       <use style="stroke:#000000;stroke-width:0.6;" x="55.82" xlink:href="#m66fa62fae4" y="41.2"/>
      </g>
     </g>
    </g>
    <g id="ytick_30">
     <g id="line2d_109">
      <path clip-path="url(#p4b5de46c68)" d="M 55.82 32.386667 
L 1066.005 32.386667 
" style="fill:none;stroke:#999999;stroke-linecap:square;stroke-opacity:0.3;stroke-width:0.25;"/>
     </g>
     <g id="line2d_110">
      <g>
       <use style="stroke:#000000;stroke-width:0.6;" x="55.82" xlink:href="#m66fa62fae4" y="32.386667"/>
      </g>
     </g>
    </g>
    <g id="ytick_31">
     <g id="line2d_111">
      <path clip-path="url(#p4b5de46c68)" d="M 55.82 23.573333 
L 1066.005 23.573333 
" style="fill:none;stroke:#999999;stroke-linecap:square;stroke-opacity:0.3;stroke-width:0.25;"/>
     </g>
     <g id="line2d_112">
      <g>
       <use style="stroke:#000000;stroke-width:0.6;" x="55.82" xlink:href="#m66fa62fae4" y="23.573333"/>
      </g>
     </g>
    </g>
    <g id="text_16">
     <!-- Asentamiento vert. [mm] -->
     <g transform="translate(21.219687 222.895625)rotate(-90)scale(0.12 -0.12)">
      <defs>
       <path d="M 2188 4044 
L 1331 1722 
L 3047 1722 
L 2188 4044 
z
M 1831 4666 
L 2547 4666 
L 4325 0 
L 3669 0 
L 3244 1197 
L 1141 1197 
L 716 0 
L 50 0 
L 1831 4666 
z
" id="DejaVuSans-41" transform="scale(0.015625)"/>
       <path d="M 3597 1894 
L 3597 1613 
L 953 1613 
Q 991 1019 1311 708 
Q 1631 397 2203 397 
Q 2534 397 2845 478 
Q 3156 559 3463 722 
L 3463 178 
Q 3153 47 2828 -22 
Q 2503 -91 2169 -91 
Q 1331 -91 842 396 
Q 353 884 353 1716 
Q 353 2575 817 3079 
Q 1281 3584 2069 3584 
Q 2775 3584 3186 3129 
Q 3597 2675 3597 1894 
z
M 3022 2063 
Q 3016 2534 2758 2815 
Q 2500 3097 2075 3097 
Q 1594 3097 1305 2825 
Q 1016 2553 972 2059 
L 3022 2063 
z
" id="DejaVuSans-65" transform="scale(0.015625)"/>
       <path d="M 1172 4494 
L 1172 3500 
L 2356 3500 
L 2356 3053 
L 1172 3053 
L 1172 1153 
Q 1172 725 1289 603 
Q 1406 481 1766 481 
L 2356 481 
L 2356 0 
L 1766 0 
Q 1100 0 847 248 
Q 594 497 594 1153 
L 594 3053 
L 172 3053 
L 172 3500 
L 594 3500 
L 594 4494 
L 1172 4494 
z
" id="DejaVuSans-74" transform="scale(0.015625)"/>
       <path d="M 2194 1759 
Q 1497 1759 1228 1600 
Q 959 1441 959 1056 
Q 959 750 1161 570 
Q 1363 391 1709 391 
Q 2188 391 2477 730 
Q 2766 1069 2766 1631 
L 2766 1759 
L 2194 1759 
z
M 3341 1997 
L 3341 0 
L 2766 0 
L 2766 531 
Q 2569 213 2275 61 
Q 1981 -91 1556 -91 
Q 1019 -91 701 211 
Q 384 513 384 1019 
Q 384 1609 779 1909 
Q 1175 2209 1959 2209 
L 2766 2209 
L 2766 2266 
Q 2766 2663 2505 2880 
Q 2244 3097 1772 3097 
Q 1472 3097 1187 3025 
Q 903 2953 641 2809 
L 641 3341 
Q 956 3463 1253 3523 
Q 1550 3584 1831 3584 
Q 2591 3584 2966 3190 
Q 3341 2797 3341 1997 
z
" id="DejaVuSans-61" transform="scale(0.015625)"/>
       <path d="M 191 3500 
L 800 3500 
L 1894 563 
L 2988 3500 
L 3597 3500 
L 2284 0 
L 1503 0 
L 191 3500 
z
" id="DejaVuSans-76" transform="scale(0.015625)"/>
       <path d="M 2631 2963 
Q 2534 3019 2420 3045 
Q 2306 3072 2169 3072 
Q 1681 3072 1420 2755 
Q 1159 2438 1159 1844 
L 1159 0 
L 581 0 
L 581 3500 
L 1159 3500 
L 1159 2956 
Q 1341 3275 1631 3429 
Q 1922 3584 2338 3584 
Q 2397 3584 2469 3576 
Q 2541 3569 2628 3553 
L 2631 2963 
z
" id="DejaVuSans-72" transform="scale(0.015625)"/>
       <path d="M 684 794 
L 1344 794 
L 1344 0 
L 684 0 
L 684 794 
z
" id="DejaVuSans-2e" transform="scale(0.015625)"/>
       <path d="M 550 4863 
L 1875 4863 
L 1875 4416 
L 1125 4416 
L 1125 -397 
L 1875 -397 
L 1875 -844 
L 550 -844 
L 550 4863 
z
" id="DejaVuSans-5b" transform="scale(0.015625)"/>
       <path d="M 1947 4863 
L 1947 -844 
L 622 -844 
L 622 -397 
L 1369 -397 
L 1369 4416 
L 622 4416 
L 622 4863 
L 1947 4863 
z
" id="DejaVuSans-5d" transform="scale(0.015625)"/>
      </defs>
      <use xlink:href="#DejaVuSans-41"/>
      <use x="68.408203" xlink:href="#DejaVuSans-73"/>
      <use x="120.507812" xlink:href="#DejaVuSans-65"/>
      <use x="182.03125" xlink:href="#DejaVuSans-6e"/>
      <use x="245.410156" xlink:href="#DejaVuSans-74"/>
      <use x="284.619141" xlink:href="#DejaVuSans-61"/>
      <use x="345.898438" xlink:href="#DejaVuSans-6d"/>
      <use x="443.310547" xlink:href="#DejaVuSans-69"/>
      <use x="471.09375" xlink:href="#DejaVuSans-65"/>
      <use x="532.617188" xlink:href="#DejaVuSans-6e"/>
      <use x="595.996094" xlink:href="#DejaVuSans-74"/>
      <use x="635.205078" xlink:href="#DejaVuSans-6f"/>
      <use x="696.386719" xlink:href="#DejaVuSans-20"/>
      <use x="728.173828" xlink:href="#DejaVuSans-76"/>
      <use x="787.353516" xlink:href="#DejaVuSans-65"/>
      <use x="848.876953" xlink:href="#DejaVuSans-72"/>
      <use x="889.990234" xlink:href="#DejaVuSans-74"/>
      <use x="929.199219" xlink:href="#DejaVuSans-2e"/>
      <use x="960.986328" xlink:href="#DejaVuSans-20"/>
      <use x="992.773438" xlink:href="#DejaVuSans-5b"/>
      <use x="1031.787109" xlink:href="#DejaVuSans-6d"/>
      <use x="1129.199219" xlink:href="#DejaVuSans-6d"/>
      <use x="1226.611328" xlink:href="#DejaVuSans-5d"/>
     </g>
    </g>
   </g>
   <g id="line2d_113">
    <path clip-path="url(#p4b5de46c68)" d="M 140.002083 58.826667 
L 560.9125 58.826667 
L 981.822917 58.826667 
" style="fill:none;stroke:#000000;stroke-linecap:square;stroke-width:0.75;"/>
   </g>
   <g id="line2d_114">
    <path clip-path="url(#p4b5de46c68)" d="M 140.002083 67.64 
L 560.9125 58.826667 
L 981.822917 67.64 
" style="fill:none;stroke:#0a0a0a;stroke-linecap:square;stroke-width:0.75;"/>
   </g>
   <g id="line2d_115">
    <path clip-path="url(#p4b5de46c68)" d="M 140.002083 76.453333 
L 560.9125 67.64 
L 981.822917 76.453333 
" style="fill:none;stroke:#131313;stroke-linecap:square;stroke-width:0.75;"/>
   </g>
   <g id="line2d_116">
    <path clip-path="url(#p4b5de46c68)" d="M 140.002083 85.266667 
L 560.9125 85.266667 
L 981.822917 85.266667 
" style="fill:none;stroke:#1d1d1d;stroke-linecap:square;stroke-width:0.75;"/>
   </g>
   <g id="line2d_117">
    <path clip-path="url(#p4b5de46c68)" d="M 140.002083 94.08 
L 560.9125 85.266667 
L 981.822917 94.08 
" style="fill:none;stroke:#262626;stroke-linecap:square;stroke-width:0.75;"/>
   </g>
   <g id="line2d_118">
    <path clip-path="url(#p4b5de46c68)" d="M 140.002083 102.893333 
L 560.9125 85.266667 
L 981.822917 102.893333 
" style="fill:none;stroke:#303030;stroke-linecap:square;stroke-width:0.75;"/>
   </g>
   <g id="line2d_119">
    <path clip-path="url(#p4b5de46c68)" d="M 140.002083 111.706667 
L 560.9125 85.266667 
L 981.822917 94.08 
" style="fill:none;stroke:#393939;stroke-linecap:square;stroke-width:0.75;"/>
   </g>
   <g id="line2d_120">
    <path clip-path="url(#p4b5de46c68)" d="M 140.002083 120.52 
L 560.9125 76.453333 
L 981.822917 85.266667 
" style="fill:none;stroke:#434343;stroke-linecap:square;stroke-width:0.75;"/>
   </g>
   <g id="line2d_121">
    <path clip-path="url(#p4b5de46c68)" d="M 140.002083 111.706667 
L 560.9125 67.64 
L 981.822917 76.453333 
" style="fill:none;stroke:#4c4c4c;stroke-linecap:square;stroke-width:0.75;"/>
   </g>
   <g id="line2d_122">
    <path clip-path="url(#p4b5de46c68)" d="M 140.002083 85.266667 
L 560.9125 94.08 
L 981.822917 67.64 
" style="fill:none;stroke:#565656;stroke-linecap:square;stroke-width:0.75;"/>
   </g>
   <g id="line2d_123">
    <path clip-path="url(#p4b5de46c68)" d="M 140.002083 76.453333 
L 560.9125 76.453333 
L 981.822917 76.453333 
" style="fill:none;stroke:#606060;stroke-linecap:square;stroke-width:0.75;"/>
   </g>
   <g id="line2d_124">
    <path clip-path="url(#p4b5de46c68)" d="M 140.002083 67.64 
L 560.9125 58.826667 
L 981.822917 85.266667 
" style="fill:none;stroke:#696969;stroke-linecap:square;stroke-width:0.75;"/>
   </g>
   <g id="line2d_125">
    <path clip-path="url(#p4b5de46c68)" d="M 140.002083 67.64 
L 560.9125 67.64 
L 981.822917 85.266667 
" style="fill:none;stroke:#737373;stroke-linecap:square;stroke-width:0.75;"/>
   </g>
   <g id="line2d_126">
    <path clip-path="url(#p4b5de46c68)" d="M 140.002083 85.266667 
L 560.9125 85.266667 
L 981.822917 94.08 
" style="fill:none;stroke:#7c7c7c;stroke-linecap:square;stroke-width:0.75;"/>
   </g>
   <g id="line2d_127">
    <path clip-path="url(#p4b5de46c68)" d="M 140.002083 94.08 
L 560.9125 94.08 
L 981.822917 102.893333 
" style="fill:none;stroke:#868686;stroke-linecap:square;stroke-width:0.75;"/>
   </g>
   <g id="line2d_128">
    <path clip-path="url(#p4b5de46c68)" d="M 140.002083 102.893333 
L 560.9125 102.893333 
L 981.822917 111.706667 
" style="fill:none;stroke:#8f8f8f;stroke-linecap:square;stroke-width:0.75;"/>
   </g>
   <g id="line2d_129">
    <path clip-path="url(#p4b5de46c68)" d="M 140.002083 111.706667 
L 560.9125 111.706667 
L 981.822917 120.52 
" style="fill:none;stroke:#999999;stroke-linecap:square;stroke-width:0.75;"/>
   </g>
   <g id="line2d_130">
    <path clip-path="url(#p4b5de46c68)" d="M 140.002083 120.52 
L 560.9125 120.52 
L 981.822917 129.333333 
" style="fill:none;stroke:#a3a3a3;stroke-linecap:square;stroke-width:0.75;"/>
   </g>
   <g id="line2d_131">
    <path clip-path="url(#p4b5de46c68)" d="M 140.002083 138.146667 
L 560.9125 111.706667 
L 981.822917 111.706667 
" style="fill:none;stroke:#acacac;stroke-linecap:square;stroke-width:0.75;"/>
   </g>
   <g id="line2d_132">
    <path clip-path="url(#p4b5de46c68)" d="M 140.002083 146.96 
L 560.9125 102.893333 
L 981.822917 120.52 
" style="fill:none;stroke:#b6b6b6;stroke-linecap:square;stroke-width:0.75;"/>
   </g>
   <g id="line2d_133">
    <path clip-path="url(#p4b5de46c68)" d="M 55.82 58.826667 
L 1066.005 58.826667 
" style="fill:none;stroke:#000000;stroke-dasharray:2.775,1.2;stroke-dashoffset:0;stroke-width:0.75;"/>
   </g>
   <g id="line2d_134">
    <path clip-path="url(#p4b5de46c68)" d="M 55.82 164.586667 
L 1066.005 164.586667 
" style="fill:none;stroke:#e39f00;stroke-linecap:square;stroke-width:0.75;"/>
   </g>
   <g id="line2d_135">
    <path clip-path="url(#p4b5de46c68)" d="M 55.82 235.093333 
L 1066.005 235.093333 
" style="fill:none;stroke:#ff0000;stroke-linecap:square;stroke-width:0.75;"/>
   </g>
   <g id="patch_3">
    <path d="M 55.82 279.16 
L 55.82 14.76 
" style="fill:none;stroke:#000000;stroke-linecap:square;stroke-linejoin:miter;stroke-width:0.8;"/>
   </g>
   <g id="patch_4">
    <path d="M 1066.005 279.16 
L 1066.005 14.76 
" style="fill:none;stroke:#000000;stroke-linecap:square;stroke-linejoin:miter;stroke-width:0.8;"/>
   </g>
   <g id="patch_5">
    <path d="M 55.82 279.16 
L 1066.005 279.16 
" style="fill:none;stroke:#000000;stroke-linecap:square;stroke-linejoin:miter;stroke-width:0.8;"/>
   </g>
   <g id="patch_6">
    <path d="M 55.82 14.76 
L 1066.005 14.76 
" style="fill:none;stroke:#000000;stroke-linecap:square;stroke-linejoin:miter;stroke-width:0.8;"/>
   </g>
   <g id="text_17">
    <!-- -12.00 mm -->
    <g style="fill:#e39f00;" transform="translate(76.0237 160.620667)scale(0.1 -0.1)">
     <defs>
      <path d="M 313 2009 
L 1997 2009 
L 1997 1497 
L 313 1497 
L 313 2009 
z
" id="DejaVuSans-2d" transform="scale(0.015625)"/>
     </defs>
     <use xlink:href="#DejaVuSans-2d"/>
     <use x="36.083984" xlink:href="#DejaVuSans-31"/>
     <use x="99.707031" xlink:href="#DejaVuSans-32"/>
     <use x="163.330078" xlink:href="#DejaVuSans-2e"/>
     <use x="195.117188" xlink:href="#DejaVuSans-30"/>
     <use x="258.740234" xlink:href="#DejaVuSans-30"/>
     <use x="322.363281" xlink:href="#DejaVuSans-20"/>
     <use x="354.150391" xlink:href="#DejaVuSans-6d"/>
     <use x="451.5625" xlink:href="#DejaVuSans-6d"/>
    </g>
   </g>
   <g id="text_18">
    <!-- -20.00 mm -->
    <g style="fill:#ff0000;" transform="translate(76.0237 231.127333)scale(0.1 -0.1)">
     <use xlink:href="#DejaVuSans-2d"/>
     <use x="36.083984" xlink:href="#DejaVuSans-32"/>
     <use x="99.707031" xlink:href="#DejaVuSans-30"/>
     <use x="163.330078" xlink:href="#DejaVuSans-2e"/>
     <use x="195.117188" xlink:href="#DejaVuSans-30"/>
     <use x="258.740234" xlink:href="#DejaVuSans-30"/>
     <use x="322.363281" xlink:href="#DejaVuSans-20"/>
     <use x="354.150391" xlink:href="#DejaVuSans-6d"/>
     <use x="451.5625" xlink:href="#DejaVuSans-6d"/>
    </g>
   </g>
  </g>
 </g>
 <defs>
  <clipPath id="p4b5de46c68">
   <rect height="264.4" width="1010.185" x="55.82" y="14.76"/>
  </clipPath>
 </defs>
</svg>
